# Blender v2.91.0 OBJ File: ''
# www.blender.org
mtllib coin.mtl
o Cylinder
v -0.101365 0.000000 -0.969855
v -0.098324 0.029856 -0.997060
v -0.098324 -0.029856 -0.997059
v 0.101365 0.000000 -0.969855
v 0.098324 -0.029856 -0.997059
v 0.098324 0.029856 -0.997060
v -0.101365 -0.189209 -0.951219
v -0.098324 -0.165235 -0.983726
v -0.098324 -0.223799 -0.972077
v 0.101365 -0.189209 -0.951219
v 0.098324 -0.223799 -0.972077
v 0.098324 -0.165235 -0.983726
v -0.101365 -0.371147 -0.896029
v -0.098324 -0.353975 -0.932588
v -0.098324 -0.409141 -0.909738
v 0.101365 -0.371147 -0.896029
v 0.098324 -0.409141 -0.909738
v 0.098324 -0.353975 -0.932588
v -0.101365 -0.538823 -0.806405
v -0.098324 -0.529113 -0.845612
v -0.098324 -0.578761 -0.812438
v 0.101365 -0.538823 -0.806405
v 0.098324 -0.578761 -0.812438
v 0.098324 -0.529113 -0.845612
v -0.101365 -0.685791 -0.685791
v -0.098324 -0.683916 -0.726139
v -0.098324 -0.726139 -0.683916
v 0.101365 -0.685791 -0.685791
v 0.098324 -0.726139 -0.683916
v 0.098324 -0.683916 -0.726139
v -0.101365 -0.806405 -0.538822
v -0.098324 -0.812438 -0.578761
v -0.098324 -0.845612 -0.529113
v 0.101365 -0.806405 -0.538822
v 0.098324 -0.845612 -0.529113
v 0.098324 -0.812438 -0.578761
v -0.101365 -0.896029 -0.371147
v -0.098324 -0.909738 -0.409141
v -0.098324 -0.932588 -0.353975
v 0.101365 -0.896029 -0.371147
v 0.098324 -0.932588 -0.353975
v 0.098324 -0.909738 -0.409141
v -0.101365 -0.951219 -0.189209
v -0.098324 -0.972077 -0.223799
v -0.098324 -0.983726 -0.165235
v 0.101365 -0.951219 -0.189209
v 0.098324 -0.983726 -0.165235
v 0.098324 -0.972077 -0.223799
v -0.101365 -0.969855 -0.000000
v -0.098324 -0.997059 -0.029856
v -0.098324 -0.997059 0.029855
v 0.101365 -0.969855 -0.000000
v 0.098324 -0.997060 0.029855
v 0.098324 -0.997059 -0.029856
v -0.101365 -0.951219 0.189209
v -0.098324 -0.983726 0.165235
v -0.098324 -0.972077 0.223798
v 0.101365 -0.951219 0.189209
v 0.098324 -0.972077 0.223798
v 0.098324 -0.983726 0.165235
v -0.101365 -0.896029 0.371147
v -0.098324 -0.932588 0.353975
v -0.098324 -0.909738 0.409141
v 0.101365 -0.896029 0.371147
v 0.098324 -0.909738 0.409141
v 0.098324 -0.932588 0.353975
v -0.101365 -0.806405 0.538822
v -0.098324 -0.845612 0.529113
v -0.098324 -0.812438 0.578761
v 0.101365 -0.806405 0.538822
v 0.098324 -0.812438 0.578761
v 0.098324 -0.845612 0.529113
v -0.101365 -0.685791 0.685791
v -0.098324 -0.726139 0.683916
v -0.098324 -0.683916 0.726139
v 0.101365 -0.685791 0.685791
v 0.098324 -0.683916 0.726139
v 0.098324 -0.726139 0.683916
v -0.101365 -0.538822 0.806405
v -0.098324 -0.578761 0.812438
v -0.098324 -0.529113 0.845612
v 0.101365 -0.538822 0.806405
v 0.098324 -0.529113 0.845612
v 0.098324 -0.578761 0.812438
v -0.101365 -0.371147 0.896029
v -0.098324 -0.409141 0.909738
v -0.098324 -0.353975 0.932588
v 0.101365 -0.371147 0.896029
v 0.098324 -0.353975 0.932588
v 0.098324 -0.409141 0.909738
v -0.101365 -0.189209 0.951219
v -0.098324 -0.223798 0.972077
v -0.098324 -0.165235 0.983726
v 0.101365 -0.189209 0.951219
v 0.098324 -0.165235 0.983726
v 0.098324 -0.223798 0.972077
v -0.101365 0.000000 0.969855
v -0.098324 -0.029855 0.997060
v -0.098324 0.029856 0.997059
v 0.101365 0.000000 0.969855
v 0.098324 0.029856 0.997059
v 0.098324 -0.029855 0.997059
v -0.101365 0.189210 0.951219
v -0.098324 0.165235 0.983726
v -0.098324 0.223799 0.972077
v 0.101365 0.189210 0.951219
v 0.098324 0.223799 0.972077
v 0.098324 0.165235 0.983726
v -0.101365 0.371148 0.896029
v -0.098324 0.353976 0.932588
v -0.098324 0.409142 0.909737
v 0.101365 0.371148 0.896029
v 0.098324 0.409142 0.909737
v 0.098324 0.353976 0.932588
v -0.101365 0.538823 0.806405
v -0.098324 0.529113 0.845611
v -0.098324 0.578761 0.812437
v 0.101365 0.538823 0.806405
v 0.098324 0.578761 0.812437
v 0.098324 0.529113 0.845611
v -0.101365 0.685792 0.685790
v -0.098324 0.683917 0.726138
v -0.098324 0.726139 0.683916
v 0.101365 0.685791 0.685790
v 0.098324 0.726139 0.683916
v 0.098324 0.683917 0.726138
v -0.101365 0.806405 0.538822
v -0.098324 0.812438 0.578760
v -0.098324 0.845612 0.529112
v 0.101365 0.806405 0.538822
v 0.098324 0.845612 0.529112
v 0.098324 0.812438 0.578760
v -0.101365 0.896029 0.371147
v -0.098324 0.909738 0.409140
v -0.098324 0.932588 0.353974
v 0.101365 0.896029 0.371147
v 0.098324 0.932588 0.353974
v 0.098324 0.909738 0.409140
v -0.101365 0.951219 0.189208
v -0.098324 0.972077 0.223798
v -0.098324 0.983726 0.165234
v 0.101365 0.951219 0.189208
v 0.098324 0.983726 0.165234
v 0.098324 0.972077 0.223798
v -0.101365 0.969855 -0.000001
v -0.098324 0.997060 0.029855
v -0.098324 0.997059 -0.029857
v 0.101365 0.969855 -0.000001
v 0.098324 0.997059 -0.029857
v 0.098324 0.997060 0.029855
v -0.101365 0.951219 -0.189210
v -0.098324 0.983726 -0.165236
v -0.098324 0.972076 -0.223800
v 0.101365 0.951219 -0.189210
v 0.098324 0.972076 -0.223800
v 0.098324 0.983726 -0.165236
v -0.101365 0.896029 -0.371149
v -0.098324 0.932588 -0.353976
v -0.098324 0.909737 -0.409142
v 0.101365 0.896029 -0.371149
v 0.098324 0.909737 -0.409142
v 0.098324 0.932588 -0.353976
v -0.101365 0.806404 -0.538824
v -0.098324 0.845611 -0.529114
v -0.098324 0.812437 -0.578762
v 0.101365 0.806404 -0.538824
v 0.098324 0.812437 -0.578762
v 0.098324 0.845611 -0.529114
v -0.101365 0.685790 -0.685792
v -0.098324 0.726138 -0.683917
v -0.098324 0.683916 -0.726139
v 0.101365 0.685790 -0.685792
v 0.098324 0.683916 -0.726139
v 0.098324 0.726138 -0.683917
v -0.101365 0.538822 -0.806405
v -0.098324 0.578759 -0.812439
v -0.098324 0.529111 -0.845612
v 0.101365 0.538822 -0.806405
v 0.098324 0.529111 -0.845612
v 0.098324 0.578759 -0.812439
v -0.101365 0.371146 -0.896030
v -0.098324 0.409140 -0.909738
v -0.098324 0.353974 -0.932589
v 0.101365 0.371146 -0.896030
v 0.098324 0.353974 -0.932589
v 0.098324 0.409140 -0.909738
v -0.101365 0.189208 -0.951220
v -0.098324 0.223797 -0.972077
v -0.098324 0.165233 -0.983726
v 0.101365 0.189208 -0.951220
v 0.098324 0.165233 -0.983726
v 0.098324 0.223797 -0.972077
vt 0.026468 0.507500
vt 0.026468 0.992500
vt 0.004782 0.992500
vt 0.004782 0.507500
vt 0.932718 0.507500
vt 0.932718 0.992500
vt 0.911032 0.992500
vt 0.911032 0.507500
vt 0.901468 0.507500
vt 0.901468 0.992500
vt 0.879782 0.992500
vt 0.879782 0.507500
vt 0.870218 0.507500
vt 0.870218 0.992500
vt 0.848532 0.992500
vt 0.848532 0.507500
vt 0.838968 0.507500
vt 0.838968 0.992500
vt 0.817282 0.992500
vt 0.817282 0.507500
vt 0.807718 0.507500
vt 0.807718 0.992500
vt 0.786032 0.992500
vt 0.786032 0.507500
vt 0.776468 0.507500
vt 0.776468 0.992500
vt 0.754782 0.992500
vt 0.754782 0.507500
vt 0.745218 0.507500
vt 0.745218 0.992500
vt 0.723532 0.992500
vt 0.723532 0.507500
vt 0.713968 0.507500
vt 0.713968 0.992500
vt 0.692282 0.992500
vt 0.692282 0.507500
vt 0.682718 0.507500
vt 0.682718 0.992500
vt 0.661032 0.992500
vt 0.661032 0.507500
vt 0.651468 0.507500
vt 0.651468 0.992500
vt 0.629782 0.992500
vt 0.629782 0.507500
vt 0.620218 0.507500
vt 0.620218 0.992500
vt 0.598532 0.992500
vt 0.598532 0.507500
vt 0.588968 0.507500
vt 0.588968 0.992500
vt 0.567282 0.992500
vt 0.567282 0.507500
vt 0.557718 0.507500
vt 0.557718 0.992500
vt 0.536032 0.992500
vt 0.536032 0.507500
vt 0.526468 0.507500
vt 0.526468 0.992500
vt 0.504782 0.992500
vt 0.504782 0.507500
vt 0.495218 0.507500
vt 0.495218 0.992500
vt 0.473532 0.992500
vt 0.473532 0.507500
vt 0.463968 0.507500
vt 0.463968 0.992500
vt 0.442282 0.992500
vt 0.442282 0.507500
vt 0.432718 0.507500
vt 0.432718 0.992500
vt 0.411032 0.992500
vt 0.411032 0.507500
vt 0.401468 0.507500
vt 0.401468 0.992500
vt 0.379782 0.992500
vt 0.379782 0.507500
vt 0.370218 0.507500
vt 0.370218 0.992500
vt 0.348532 0.992500
vt 0.348532 0.507500
vt 0.338968 0.507500
vt 0.338968 0.992500
vt 0.317282 0.992500
vt 0.317282 0.507500
vt 0.307718 0.507500
vt 0.307718 0.992500
vt 0.286032 0.992500
vt 0.286032 0.507500
vt 0.276468 0.507500
vt 0.276468 0.992500
vt 0.254782 0.992500
vt 0.254782 0.507500
vt 0.245218 0.507500
vt 0.245218 0.992500
vt 0.223532 0.992500
vt 0.223532 0.507500
vt 0.213968 0.507500
vt 0.213968 0.992500
vt 0.192282 0.992500
vt 0.192282 0.507500
vt 0.182718 0.507500
vt 0.182718 0.992500
vt 0.161032 0.992500
vt 0.161032 0.507500
vt 0.151468 0.507500
vt 0.151468 0.992500
vt 0.129782 0.992500
vt 0.129782 0.507500
vt 0.120218 0.507500
vt 0.120218 0.992500
vt 0.098532 0.992500
vt 0.098532 0.507500
vt 0.088968 0.507500
vt 0.088968 0.992500
vt 0.067282 0.992500
vt 0.067282 0.507500
vt 0.057718 0.507500
vt 0.057718 0.992500
vt 0.036032 0.992500
vt 0.036032 0.507500
vt 0.963968 0.507500
vt 0.963968 0.992500
vt 0.942282 0.992500
vt 0.942282 0.507500
vt 0.295410 0.478293
vt 0.250000 0.482765
vt 0.204590 0.478293
vt 0.160925 0.465047
vt 0.120683 0.443537
vt 0.085410 0.414590
vt 0.056463 0.379318
vt 0.034953 0.339076
vt 0.021707 0.295410
vt 0.017235 0.250000
vt 0.021707 0.204590
vt 0.034953 0.160925
vt 0.056463 0.120683
vt 0.085410 0.085410
vt 0.120683 0.056463
vt 0.160924 0.034953
vt 0.204590 0.021707
vt 0.250000 0.017235
vt 0.295410 0.021707
vt 0.339075 0.034953
vt 0.379317 0.056463
vt 0.414590 0.085410
vt 0.443537 0.120683
vt 0.465047 0.160925
vt 0.478293 0.204590
vt 0.482765 0.250000
vt 0.478293 0.295410
vt 0.465047 0.339075
vt 0.443537 0.379317
vt 0.414590 0.414590
vt 0.379317 0.443537
vt 0.339075 0.465047
vt 0.995218 0.507500
vt 0.995218 0.992500
vt 0.973532 0.992500
vt 0.973532 0.507500
vt 0.000471 0.500000
vt 0.004782 0.500000
vt 0.000000 0.507500
vt 0.000471 1.000000
vt 0.000000 0.992500
vt 0.004782 1.000000
vt 0.969221 0.500000
vt 0.973532 0.500000
vt 0.968750 0.507500
vt 0.969221 1.000000
vt 0.968750 0.992500
vt 0.973532 1.000000
vt 0.937971 0.500000
vt 0.942282 0.500000
vt 0.937500 0.507500
vt 0.937971 1.000000
vt 0.937500 0.992500
vt 0.942282 1.000000
vt 0.906721 0.500000
vt 0.911032 0.500000
vt 0.906250 0.507500
vt 0.906721 1.000000
vt 0.906250 0.992500
vt 0.911032 1.000000
vt 0.875471 0.500000
vt 0.879782 0.500000
vt 0.875000 0.507500
vt 0.875471 1.000000
vt 0.875000 0.992500
vt 0.879782 1.000000
vt 0.844221 0.500000
vt 0.848532 0.500000
vt 0.843750 0.507500
vt 0.844221 1.000000
vt 0.843750 0.992500
vt 0.848532 1.000000
vt 0.812971 0.500000
vt 0.817282 0.500000
vt 0.812500 0.507500
vt 0.812971 1.000000
vt 0.812500 0.992500
vt 0.817282 1.000000
vt 0.781721 0.500000
vt 0.786032 0.500000
vt 0.781250 0.507500
vt 0.781721 1.000000
vt 0.781250 0.992500
vt 0.786032 1.000000
vt 0.750471 0.500000
vt 0.754782 0.500000
vt 0.750000 0.507500
vt 0.750471 1.000000
vt 0.750000 0.992500
vt 0.754782 1.000000
vt 0.718279 0.500000
vt 0.718750 0.507500
vt 0.713968 0.500000
vt 0.718279 1.000000
vt 0.713968 1.000000
vt 0.718750 0.992500
vt 0.687029 0.500000
vt 0.687500 0.507500
vt 0.682718 0.500000
vt 0.687029 1.000000
vt 0.682718 1.000000
vt 0.687500 0.992500
vt 0.655779 0.500000
vt 0.656250 0.507500
vt 0.651468 0.500000
vt 0.655779 1.000000
vt 0.651468 1.000000
vt 0.656250 0.992500
vt 0.624529 0.500000
vt 0.625000 0.507500
vt 0.620218 0.500000
vt 0.624529 1.000000
vt 0.620218 1.000000
vt 0.625000 0.992500
vt 0.593279 0.500000
vt 0.593750 0.507500
vt 0.588968 0.500000
vt 0.593279 1.000000
vt 0.588968 1.000000
vt 0.593750 0.992500
vt 0.562029 0.500000
vt 0.562500 0.507500
vt 0.557718 0.500000
vt 0.562029 1.000000
vt 0.557718 1.000000
vt 0.562500 0.992500
vt 0.530779 0.500000
vt 0.531250 0.507500
vt 0.526468 0.500000
vt 0.530779 1.000000
vt 0.526468 1.000000
vt 0.531250 0.992500
vt 0.499529 0.500000
vt 0.500000 0.507500
vt 0.495218 0.500000
vt 0.499529 1.000000
vt 0.495218 1.000000
vt 0.500000 0.992500
vt 0.468279 0.500000
vt 0.468750 0.507500
vt 0.463968 0.500000
vt 0.468279 1.000000
vt 0.463968 1.000000
vt 0.468750 0.992500
vt 0.437029 0.500000
vt 0.437500 0.507500
vt 0.432718 0.500000
vt 0.437029 1.000000
vt 0.432718 1.000000
vt 0.437500 0.992500
vt 0.405779 0.500000
vt 0.406250 0.507500
vt 0.401468 0.500000
vt 0.405779 1.000000
vt 0.401468 1.000000
vt 0.406250 0.992500
vt 0.374529 0.500000
vt 0.375000 0.507500
vt 0.370218 0.500000
vt 0.374529 1.000000
vt 0.370218 1.000000
vt 0.375000 0.992500
vt 0.343279 0.500000
vt 0.343750 0.507500
vt 0.338968 0.500000
vt 0.343279 1.000000
vt 0.338968 1.000000
vt 0.343750 0.992500
vt 0.312029 0.500000
vt 0.312500 0.507500
vt 0.307718 0.500000
vt 0.312029 1.000000
vt 0.307718 1.000000
vt 0.312500 0.992500
vt 0.280779 0.500000
vt 0.281250 0.507500
vt 0.276468 0.500000
vt 0.280779 1.000000
vt 0.276468 1.000000
vt 0.281250 0.992500
vt 0.250471 0.500000
vt 0.254782 0.500000
vt 0.250000 0.507500
vt 0.250471 1.000000
vt 0.250000 0.992500
vt 0.254782 1.000000
vt 0.219221 0.500000
vt 0.223532 0.500000
vt 0.218750 0.507500
vt 0.219221 1.000000
vt 0.218750 0.992500
vt 0.223532 1.000000
vt 0.187971 0.500000
vt 0.192282 0.500000
vt 0.187500 0.507500
vt 0.187971 1.000000
vt 0.187500 0.992500
vt 0.192282 1.000000
vt 0.156721 0.500000
vt 0.161032 0.500000
vt 0.156250 0.507500
vt 0.156721 1.000000
vt 0.156250 0.992500
vt 0.161032 1.000000
vt 0.125471 0.500000
vt 0.129782 0.500000
vt 0.125000 0.507500
vt 0.125471 1.000000
vt 0.125000 0.992500
vt 0.129782 1.000000
vt 0.094221 0.500000
vt 0.098532 0.500000
vt 0.093750 0.507500
vt 0.094221 1.000000
vt 0.093750 0.992500
vt 0.098532 1.000000
vt 0.062971 0.500000
vt 0.067282 0.500000
vt 0.062500 0.507500
vt 0.062971 1.000000
vt 0.062500 0.992500
vt 0.067282 1.000000
vt 0.031721 0.500000
vt 0.036032 0.500000
vt 0.031250 0.507500
vt 0.031721 1.000000
vt 0.031250 0.992500
vt 0.036032 1.000000
vt 0.999529 0.500000
vt 0.999529 1.000000
vt 0.968279 0.500000
vt 0.968279 1.000000
vt 0.937029 0.500000
vt 0.937029 1.000000
vt 0.905779 0.500000
vt 0.905779 1.000000
vt 0.874529 0.500000
vt 0.874529 1.000000
vt 0.843279 0.500000
vt 0.843279 1.000000
vt 0.812029 0.500000
vt 0.812029 1.000000
vt 0.780779 0.500000
vt 0.780779 1.000000
vt 0.719221 0.500000
vt 0.749529 0.500000
vt 0.749529 1.000000
vt 0.719221 1.000000
vt 0.687971 0.500000
vt 0.687971 1.000000
vt 0.656721 0.500000
vt 0.656721 1.000000
vt 0.625471 0.500000
vt 0.625471 1.000000
vt 0.594221 0.500000
vt 0.594221 1.000000
vt 0.562971 0.500000
vt 0.562971 1.000000
vt 0.531721 0.500000
vt 0.531721 1.000000
vt 0.500471 0.500000
vt 0.500471 1.000000
vt 0.469221 0.500000
vt 0.469221 1.000000
vt 0.437971 0.500000
vt 0.437971 1.000000
vt 0.406721 0.500000
vt 0.406721 1.000000
vt 0.375471 0.500000
vt 0.375471 1.000000
vt 0.344221 0.500000
vt 0.344221 1.000000
vt 0.312971 0.500000
vt 0.312971 1.000000
vt 0.281721 0.500000
vt 0.281721 1.000000
vt 0.249529 0.500000
vt 0.249529 1.000000
vt 0.218279 0.500000
vt 0.218279 1.000000
vt 0.187029 0.500000
vt 0.187029 1.000000
vt 0.155779 0.500000
vt 0.155779 1.000000
vt 0.124529 0.500000
vt 0.124529 1.000000
vt 0.093279 0.500000
vt 0.093279 1.000000
vt 0.062029 0.500000
vt 0.062029 1.000000
vt 0.030779 0.500000
vt 0.030779 1.000000
vt 0.750000 0.482765
vt 0.795410 0.478293
vt 0.839075 0.465047
vt 0.879317 0.443537
vt 0.914590 0.414590
vt 0.943537 0.379317
vt 0.965047 0.339075
vt 0.978293 0.295410
vt 0.982765 0.250000
vt 0.978293 0.204590
vt 0.965047 0.160925
vt 0.943537 0.120683
vt 0.914590 0.085410
vt 0.879318 0.056463
vt 0.839075 0.034953
vt 0.795410 0.021707
vt 0.750000 0.017235
vt 0.704590 0.021707
vt 0.660924 0.034953
vt 0.620682 0.056463
vt 0.585410 0.085410
vt 0.556463 0.120683
vt 0.534953 0.160925
vt 0.521707 0.204590
vt 0.517235 0.250000
vt 0.521707 0.295410
vt 0.534953 0.339076
vt 0.556463 0.379318
vt 0.585410 0.414590
vt 0.620683 0.443537
vt 0.660925 0.465047
vt 0.704590 0.478293
vn -0.0000 0.0980 -0.9952
vn 0.0000 -0.4714 -0.8819
vn 0.0000 -0.6344 -0.7730
vn 0.0000 -0.7730 -0.6344
vn 0.0000 -0.8819 -0.4714
vn 0.0000 -0.9569 -0.2903
vn 0.0000 -0.9952 -0.0980
vn -0.0000 -0.9952 0.0980
vn 0.0000 -0.9569 0.2903
vn 0.0000 -0.8819 0.4714
vn 0.0000 -0.7730 0.6344
vn 0.0000 -0.6344 0.7730
vn 0.0000 -0.4714 0.8819
vn 0.0000 -0.2903 0.9569
vn -0.0000 -0.0980 0.9952
vn -0.0000 0.0980 0.9952
vn 0.0000 0.2903 0.9569
vn 0.0000 0.4714 0.8819
vn 0.0000 0.6344 0.7730
vn 0.0000 0.7730 0.6344
vn 0.0000 0.8819 0.4714
vn 0.0000 0.9569 0.2903
vn 0.0000 0.9952 0.0980
vn 0.0000 0.9952 -0.0980
vn 0.0000 0.9569 -0.2903
vn 0.0000 0.8819 -0.4714
vn 0.0000 0.7730 -0.6344
vn 0.0000 0.6344 -0.7730
vn 0.0000 0.4714 -0.8819
vn 0.0000 0.2903 -0.9569
vn 0.0000 -0.2903 -0.9569
vn 1.0000 -0.0000 0.0000
vn 0.0000 -0.0980 -0.9952
vn -0.9938 -0.0000 -0.1111
vn 0.9938 -0.0000 -0.1111
vn -0.9938 -0.0217 -0.1090
vn 0.9938 -0.0217 -0.1090
vn -0.9938 -0.0425 -0.1026
vn 0.9938 -0.0425 -0.1026
vn -0.9938 -0.0617 -0.0924
vn 0.9938 -0.0617 -0.0924
vn -0.9938 -0.0786 -0.0786
vn 0.9938 -0.0786 -0.0786
vn -0.9938 -0.0924 -0.0617
vn 0.9938 -0.0924 -0.0617
vn -0.9938 -0.1026 -0.0425
vn 0.9938 -0.1026 -0.0425
vn -0.9938 -0.1090 -0.0217
vn 0.9938 -0.1090 -0.0217
vn -0.9938 -0.1111 0.0000
vn 0.9938 -0.1111 0.0000
vn -0.9938 -0.1090 0.0217
vn 0.9938 -0.1090 0.0217
vn -0.9938 -0.1026 0.0425
vn 0.9938 -0.1026 0.0425
vn -0.9938 -0.0924 0.0617
vn 0.9938 -0.0924 0.0617
vn -0.9938 -0.0786 0.0786
vn 0.9938 -0.0786 0.0786
vn -0.9938 -0.0617 0.0924
vn 0.9938 -0.0617 0.0924
vn -0.9938 -0.0425 0.1026
vn 0.9938 -0.0425 0.1026
vn -0.9938 -0.0217 0.1090
vn 0.9938 -0.0217 0.1090
vn -0.9938 0.0000 0.1111
vn 0.9938 0.0000 0.1111
vn -0.9938 0.0217 0.1090
vn 0.9938 0.0217 0.1090
vn -0.9938 0.0425 0.1026
vn 0.9938 0.0425 0.1026
vn -0.9938 0.0617 0.0924
vn 0.9938 0.0617 0.0924
vn -0.9938 0.0786 0.0786
vn 0.9938 0.0786 0.0786
vn -0.9938 0.0924 0.0617
vn 0.9938 0.0924 0.0617
vn -0.9938 0.1026 0.0425
vn 0.9938 0.1026 0.0425
vn -0.9938 0.1090 0.0217
vn 0.9938 0.1090 0.0217
vn -0.9938 0.1111 0.0000
vn 0.9938 0.1111 0.0000
vn -0.9938 0.1090 -0.0217
vn 0.9938 0.1090 -0.0217
vn -0.9938 0.1026 -0.0425
vn 0.9938 0.1026 -0.0425
vn -0.9938 0.0924 -0.0617
vn 0.9938 0.0924 -0.0617
vn -0.9938 0.0786 -0.0786
vn 0.9938 0.0786 -0.0786
vn -0.9938 0.0617 -0.0924
vn 0.9938 0.0617 -0.0924
vn -0.9938 0.0425 -0.1026
vn 0.9938 0.0425 -0.1026
vn -0.9938 0.0217 -0.1090
vn 0.9938 0.0217 -0.1090
vn -0.9949 -0.0099 -0.1004
vn 0.9949 -0.0099 -0.1004
vn 0.0000 -0.0000 -1.0000
vn 0.0000 -0.1951 -0.9808
vn -0.9949 -0.0293 -0.0965
vn 0.9949 -0.0293 -0.0965
vn 0.0000 -0.3827 -0.9239
vn -0.9949 -0.0475 -0.0889
vn 0.9949 -0.0475 -0.0889
vn 0.0000 -0.5556 -0.8315
vn -0.9949 -0.0640 -0.0780
vn 0.9949 -0.0640 -0.0780
vn 0.0000 -0.7071 -0.7071
vn -0.9949 -0.0780 -0.0640
vn 0.9949 -0.0780 -0.0640
vn 0.0000 -0.8315 -0.5556
vn -0.9949 -0.0889 -0.0475
vn 0.9949 -0.0889 -0.0475
vn 0.0000 -0.9239 -0.3827
vn -0.9949 -0.0965 -0.0293
vn 0.9949 -0.0965 -0.0293
vn 0.0000 -0.9808 -0.1951
vn -0.9949 -0.1004 -0.0099
vn 0.9949 -0.1004 -0.0099
vn -0.0000 -1.0000 0.0000
vn -0.9949 -0.1004 0.0099
vn 0.9949 -0.1004 0.0099
vn 0.0000 -0.9808 0.1951
vn -0.9949 -0.0965 0.0293
vn 0.9949 -0.0965 0.0293
vn 0.0000 -0.9239 0.3827
vn -0.9949 -0.0889 0.0475
vn 0.9949 -0.0889 0.0475
vn 0.0000 -0.8315 0.5556
vn -0.9949 -0.0780 0.0640
vn 0.9949 -0.0780 0.0640
vn 0.0000 -0.7071 0.7071
vn -0.9949 -0.0640 0.0780
vn 0.9949 -0.0640 0.0780
vn 0.0000 -0.5556 0.8315
vn -0.9949 -0.0475 0.0889
vn 0.9949 -0.0475 0.0889
vn 0.0000 -0.3827 0.9239
vn -0.9949 -0.0293 0.0965
vn 0.9949 -0.0293 0.0965
vn 0.0000 -0.1951 0.9808
vn -0.9949 -0.0099 0.1004
vn 0.9949 -0.0099 0.1004
vn 0.0000 0.0000 1.0000
vn -0.9949 0.0099 0.1004
vn 0.9949 0.0099 0.1004
vn 0.0000 0.1951 0.9808
vn -0.9949 0.0293 0.0965
vn 0.9949 0.0293 0.0965
vn 0.0000 0.3827 0.9239
vn -0.9949 0.0475 0.0889
vn 0.9949 0.0475 0.0889
vn 0.0000 0.5556 0.8315
vn -0.9949 0.0640 0.0780
vn 0.9949 0.0640 0.0780
vn 0.0000 0.7071 0.7071
vn -0.9949 0.0780 0.0640
vn 0.9949 0.0780 0.0640
vn 0.0000 0.8315 0.5556
vn -0.9949 0.0889 0.0475
vn 0.9949 0.0889 0.0475
vn 0.0000 0.9239 0.3827
vn -0.9949 0.0965 0.0293
vn 0.9949 0.0965 0.0293
vn 0.0000 0.9808 0.1951
vn -0.9949 0.1004 0.0099
vn 0.9949 0.1004 0.0099
vn 0.0000 1.0000 -0.0000
vn -0.9949 0.1004 -0.0099
vn 0.9949 0.1004 -0.0099
vn 0.0000 0.9808 -0.1951
vn -0.9949 0.0965 -0.0293
vn 0.9949 0.0965 -0.0293
vn 0.0000 0.9239 -0.3827
vn -0.9949 0.0889 -0.0475
vn 0.9949 0.0889 -0.0475
vn 0.0000 0.8315 -0.5556
vn -0.9949 0.0780 -0.0640
vn 0.9949 0.0780 -0.0640
vn 0.0000 0.7071 -0.7071
vn -0.9949 0.0640 -0.0780
vn 0.9949 0.0640 -0.0780
vn 0.0000 0.5556 -0.8315
vn -0.9949 0.0475 -0.0889
vn 0.9949 0.0475 -0.0889
vn 0.0000 0.3827 -0.9239
vn -0.9949 0.0293 -0.0965
vn 0.9949 0.0293 -0.0965
vn 0.0000 0.1951 -0.9808
vn -0.9949 0.0099 -0.1004
vn 0.9949 0.0099 -0.1004
vn -1.0000 0.0000 -0.0000
g Cylinder_Cylinder_Material.001
usemtl Material.001
s off
f 189/1/1 191/2/1 6/3/1 2/4/1
f 15/5/2 17/6/2 24/7/2 20/8/2
f 21/9/3 23/10/3 30/11/3 26/12/3
f 27/13/4 29/14/4 36/15/4 32/16/4
f 33/17/5 35/18/5 42/19/5 38/20/5
f 39/21/6 41/22/6 48/23/6 44/24/6
f 45/25/7 47/26/7 54/27/7 50/28/7
f 51/29/8 53/30/8 60/31/8 56/32/8
f 57/33/9 59/34/9 66/35/9 62/36/9
f 63/37/10 65/38/10 72/39/10 68/40/10
f 69/41/11 71/42/11 78/43/11 74/44/11
f 75/45/12 77/46/12 84/47/12 80/48/12
f 81/49/13 83/50/13 90/51/13 86/52/13
f 87/53/14 89/54/14 96/55/14 92/56/14
f 93/57/15 95/58/15 102/59/15 98/60/15
f 99/61/16 101/62/16 108/63/16 104/64/16
f 105/65/17 107/66/17 114/67/17 110/68/17
f 111/69/18 113/70/18 120/71/18 116/72/18
f 117/73/19 119/74/19 126/75/19 122/76/19
f 123/77/20 125/78/20 132/79/20 128/80/20
f 129/81/21 131/82/21 138/83/21 134/84/21
f 135/85/22 137/86/22 144/87/22 140/88/22
f 141/89/23 143/90/23 150/91/23 146/92/23
f 147/93/24 149/94/24 156/95/24 152/96/24
f 153/97/25 155/98/25 162/99/25 158/100/25
f 159/101/26 161/102/26 168/103/26 164/104/26
f 165/105/27 167/106/27 174/107/27 170/108/27
f 171/109/28 173/110/28 180/111/28 176/112/28
f 177/113/29 179/114/29 186/115/29 182/116/29
f 183/117/30 185/118/30 192/119/30 188/120/30
f 9/121/31 11/122/31 18/123/31 14/124/31
f 10/125/32 4/126/32 190/127/32 184/128/32 178/129/32 172/130/32 166/131/32 160/132/32 154/133/32 148/134/32 142/135/32 136/136/32 130/137/32 124/138/32 118/139/32 112/140/32 106/141/32 100/142/32 94/143/32 88/144/32 82/145/32 76/146/32 70/147/32 64/148/32 58/149/32 52/150/32 46/151/32 40/152/32 34/153/32 28/154/32 22/155/32 16/156/32
f 3/157/33 5/158/33 12/159/33 8/160/33
f 1/161/34 2/162/34 3/163/34
f 4/164/35 5/165/35 6/166/35
f 7/167/36 8/168/36 9/169/36
f 10/170/37 11/171/37 12/172/37
f 13/173/38 14/174/38 15/175/38
f 16/176/39 17/177/39 18/178/39
f 19/179/40 20/180/40 21/181/40
f 22/182/41 23/183/41 24/184/41
f 25/185/42 26/186/42 27/187/42
f 28/188/43 29/189/43 30/190/43
f 31/191/44 32/192/44 33/193/44
f 34/194/45 35/195/45 36/196/45
f 37/197/46 38/198/46 39/199/46
f 40/200/47 41/201/47 42/202/47
f 43/203/48 44/204/48 45/205/48
f 46/206/49 47/207/49 48/208/49
f 49/209/50 50/210/50 51/211/50
f 52/212/51 53/213/51 54/214/51
f 55/215/52 56/216/52 57/217/52
f 58/218/53 59/219/53 60/220/53
f 61/221/54 62/222/54 63/223/54
f 64/224/55 65/225/55 66/226/55
f 67/227/56 68/228/56 69/229/56
f 70/230/57 71/231/57 72/232/57
f 73/233/58 74/234/58 75/235/58
f 76/236/59 77/237/59 78/238/59
f 79/239/60 80/240/60 81/241/60
f 82/242/61 83/243/61 84/244/61
f 85/245/62 86/246/62 87/247/62
f 88/248/63 89/249/63 90/250/63
f 91/251/64 92/252/64 93/253/64
f 94/254/65 95/255/65 96/256/65
f 97/257/66 98/258/66 99/259/66
f 100/260/67 101/261/67 102/262/67
f 103/263/68 104/264/68 105/265/68
f 106/266/69 107/267/69 108/268/69
f 109/269/70 110/270/70 111/271/70
f 112/272/71 113/273/71 114/274/71
f 115/275/72 116/276/72 117/277/72
f 118/278/73 119/279/73 120/280/73
f 121/281/74 122/282/74 123/283/74
f 124/284/75 125/285/75 126/286/75
f 127/287/76 128/288/76 129/289/76
f 130/290/77 131/291/77 132/292/77
f 133/293/78 134/294/78 135/295/78
f 136/296/79 137/297/79 138/298/79
f 139/299/80 140/300/80 141/301/80
f 142/302/81 143/303/81 144/304/81
f 145/305/82 146/306/82 147/307/82
f 148/308/83 149/309/83 150/310/83
f 151/311/84 152/312/84 153/313/84
f 154/314/85 155/315/85 156/316/85
f 157/317/86 158/318/86 159/319/86
f 160/320/87 161/321/87 162/322/87
f 163/323/88 164/324/88 165/325/88
f 166/326/89 167/327/89 168/328/89
f 169/329/90 170/330/90 171/331/90
f 172/332/91 173/333/91 174/334/91
f 175/335/92 176/336/92 177/337/92
f 178/338/93 179/339/93 180/340/93
f 181/341/94 182/342/94 183/343/94
f 184/344/95 185/345/95 186/346/95
f 187/347/96 188/348/96 189/349/96
f 190/350/97 191/351/97 192/352/97
f 3/157/98 8/160/98 7/167/98 1/353/98
f 12/159/99 5/158/99 4/354/99 10/170/99
f 2/4/100 6/3/100 5/165/100 3/163/100
f 11/122/101 9/121/101 8/160/101 12/159/101
f 9/121/102 14/124/102 13/173/102 7/355/102
f 18/123/103 11/122/103 10/356/103 16/176/103
f 17/6/104 15/5/104 14/124/104 18/123/104
f 15/5/105 20/8/105 19/179/105 13/357/105
f 24/7/106 17/6/106 16/358/106 22/182/106
f 23/10/107 21/9/107 20/8/107 24/7/107
f 21/9/108 26/12/108 25/185/108 19/359/108
f 30/11/109 23/10/109 22/360/109 28/188/109
f 29/14/110 27/13/110 26/12/110 30/11/110
f 27/13/111 32/16/111 31/191/111 25/361/111
f 36/15/112 29/14/112 28/362/112 34/194/112
f 35/18/113 33/17/113 32/16/113 36/15/113
f 33/17/114 38/20/114 37/197/114 31/363/114
f 42/19/115 35/18/115 34/364/115 40/200/115
f 41/22/116 39/21/116 38/20/116 42/19/116
f 39/21/117 44/24/117 43/203/117 37/365/117
f 48/23/118 41/22/118 40/366/118 46/206/118
f 47/26/119 45/25/119 44/24/119 48/23/119
f 45/25/120 50/28/120 49/209/120 43/367/120
f 54/27/121 47/26/121 46/368/121 52/212/121
f 53/30/122 51/29/122 50/28/122 54/27/122
f 51/29/123 56/32/123 55/369/123 49/370/123
f 60/31/124 53/30/124 52/371/124 58/372/124
f 59/34/125 57/33/125 56/32/125 60/31/125
f 57/33/126 62/36/126 61/373/126 55/215/126
f 66/35/127 59/34/127 58/218/127 64/374/127
f 65/38/128 63/37/128 62/36/128 66/35/128
f 63/37/129 68/40/129 67/375/129 61/221/129
f 72/39/130 65/38/130 64/224/130 70/376/130
f 71/42/131 69/41/131 68/40/131 72/39/131
f 69/41/132 74/44/132 73/377/132 67/227/132
f 78/43/133 71/42/133 70/230/133 76/378/133
f 77/46/134 75/45/134 74/44/134 78/43/134
f 75/45/135 80/48/135 79/379/135 73/233/135
f 84/47/136 77/46/136 76/236/136 82/380/136
f 83/50/137 81/49/137 80/48/137 84/47/137
f 81/49/138 86/52/138 85/381/138 79/239/138
f 90/51/139 83/50/139 82/242/139 88/382/139
f 89/54/140 87/53/140 86/52/140 90/51/140
f 87/53/141 92/56/141 91/383/141 85/245/141
f 96/55/142 89/54/142 88/248/142 94/384/142
f 95/58/143 93/57/143 92/56/143 96/55/143
f 93/57/144 98/60/144 97/385/144 91/251/144
f 102/59/145 95/58/145 94/254/145 100/386/145
f 101/62/146 99/61/146 98/60/146 102/59/146
f 99/61/147 104/64/147 103/387/147 97/257/147
f 108/63/148 101/62/148 100/260/148 106/388/148
f 107/66/149 105/65/149 104/64/149 108/63/149
f 105/65/150 110/68/150 109/389/150 103/263/150
f 114/67/151 107/66/151 106/266/151 112/390/151
f 113/70/152 111/69/152 110/68/152 114/67/152
f 111/69/153 116/72/153 115/391/153 109/269/153
f 120/71/154 113/70/154 112/272/154 118/392/154
f 119/74/155 117/73/155 116/72/155 120/71/155
f 117/73/156 122/76/156 121/393/156 115/275/156
f 126/75/157 119/74/157 118/278/157 124/394/157
f 125/78/158 123/77/158 122/76/158 126/75/158
f 123/77/159 128/80/159 127/395/159 121/281/159
f 132/79/160 125/78/160 124/284/160 130/396/160
f 131/82/161 129/81/161 128/80/161 132/79/161
f 129/81/162 134/84/162 133/397/162 127/287/162
f 138/83/163 131/82/163 130/290/163 136/398/163
f 137/86/164 135/85/164 134/84/164 138/83/164
f 135/85/165 140/88/165 139/399/165 133/293/165
f 144/87/166 137/86/166 136/296/166 142/400/166
f 143/90/167 141/89/167 140/88/167 144/87/167
f 141/89/168 146/92/168 145/305/168 139/299/168
f 150/91/169 143/90/169 142/302/169 148/308/169
f 149/94/170 147/93/170 146/92/170 150/91/170
f 147/93/171 152/96/171 151/311/171 145/401/171
f 156/95/172 149/94/172 148/402/172 154/314/172
f 155/98/173 153/97/173 152/96/173 156/95/173
f 153/97/174 158/100/174 157/317/174 151/403/174
f 162/99/175 155/98/175 154/404/175 160/320/175
f 161/102/176 159/101/176 158/100/176 162/99/176
f 159/101/177 164/104/177 163/323/177 157/405/177
f 168/103/178 161/102/178 160/406/178 166/326/178
f 167/106/179 165/105/179 164/104/179 168/103/179
f 165/105/180 170/108/180 169/329/180 163/407/180
f 174/107/181 167/106/181 166/408/181 172/332/181
f 173/110/182 171/109/182 170/108/182 174/107/182
f 171/109/183 176/112/183 175/335/183 169/409/183
f 180/111/184 173/110/184 172/410/184 178/338/184
f 179/114/185 177/113/185 176/112/185 180/111/185
f 177/113/186 182/116/186 181/341/186 175/411/186
f 186/115/187 179/114/187 178/412/187 184/344/187
f 185/118/188 183/117/188 182/116/188 186/115/188
f 183/117/189 188/120/189 187/347/189 181/413/189
f 192/119/190 185/118/190 184/414/190 190/350/190
f 191/2/191 189/1/191 188/120/191 192/119/191
f 189/1/192 2/4/192 1/161/192 187/415/192
f 6/3/193 191/2/193 190/416/193 4/164/193
f 1/417/194 7/418/194 13/419/194 19/420/194 25/421/194 31/422/194 37/423/194 43/424/194 49/425/194 55/426/194 61/427/194 67/428/194 73/429/194 79/430/194 85/431/194 91/432/194 97/433/194 103/434/194 109/435/194 115/436/194 121/437/194 127/438/194 133/439/194 139/440/194 145/441/194 151/442/194 157/443/194 163/444/194 169/445/194 175/446/194 181/447/194 187/448/194
