# Blender v2.91.0 OBJ File: ''
# www.blender.org
mtllib GunRib.mtl
o Cube.004_Cube.008
v 0.129489 0.786199 0.084163
v 0.129489 0.786199 -0.084163
v 0.126040 0.786199 0.101506
v 0.116215 0.786199 0.116208
v 0.126040 0.786199 -0.101506
v 0.101512 0.786199 -0.126032
v -0.101512 0.786199 -0.126032
v -0.084168 0.786199 -0.129482
v 0.084168 0.786199 -0.129482
v 0.116215 0.786199 -0.116208
v 0.084168 0.786199 0.129482
v 0.101512 0.786199 0.126032
v -0.101512 0.786199 0.126032
v -0.129489 0.786199 -0.084163
v -0.129489 0.786199 0.084163
v -0.116215 0.786199 0.116208
v -0.126040 0.786199 0.101506
v -0.126040 0.786199 -0.101506
v -0.116215 0.786199 -0.116208
v -0.084168 0.786199 0.129482
v 0.084168 0.877807 -0.129482
v 0.101512 0.877807 -0.126032
v -0.101512 0.877807 -0.126032
v -0.129489 0.877807 -0.084163
v -0.129489 0.877807 0.084163
v -0.116215 0.877807 0.116208
v -0.126040 0.877807 0.101506
v -0.126040 0.877807 -0.101506
v -0.116215 0.877807 -0.116208
v -0.084168 0.877807 -0.129482
v 0.129489 0.877807 0.084163
v 0.129489 0.877807 -0.084163
v 0.126040 0.877807 0.101506
v 0.116215 0.877807 0.116208
v 0.126040 0.877807 -0.101506
v 0.101512 0.877807 0.126032
v -0.101512 0.877807 0.126032
v -0.084168 0.877807 0.129482
v 0.084168 0.877807 0.129482
v 0.116215 0.877807 -0.116208
vt 0.764527 0.610474
vt 0.762689 0.609246
vt 0.760521 0.608815
vt 0.739479 0.608815
vt 0.737311 0.609246
vt 0.735473 0.610474
vt 0.734245 0.612312
vt 0.733814 0.614480
vt 0.733814 0.635520
vt 0.734245 0.637688
vt 0.735473 0.639526
vt 0.737311 0.640754
vt 0.739479 0.641185
vt 0.760521 0.641185
vt 0.762689 0.640754
vt 0.764527 0.639526
vt 0.765755 0.637688
vt 0.766186 0.635520
vt 0.766186 0.614480
vt 0.765755 0.612312
vt 0.235473 0.639526
vt 0.237311 0.640754
vt 0.239479 0.641185
vt 0.260521 0.641185
vt 0.262689 0.640754
vt 0.264527 0.639526
vt 0.265755 0.637688
vt 0.266186 0.635520
vt 0.266186 0.614480
vt 0.265755 0.612312
vt 0.264527 0.610474
vt 0.262689 0.609246
vt 0.260521 0.608815
vt 0.239479 0.608815
vt 0.237311 0.609246
vt 0.235473 0.610474
vt 0.234245 0.612312
vt 0.233814 0.614480
vt 0.233814 0.635520
vt 0.234245 0.637688
vt 0.436504 0.793750
vt 0.540954 0.793750
vt 0.540954 0.956250
vt 0.436504 0.956250
vt 0.436504 0.543750
vt 0.540954 0.543750
vt 0.540954 0.706250
vt 0.436504 0.706250
vt 0.436504 0.043750
vt 0.540954 0.043750
vt 0.540954 0.206250
vt 0.436504 0.206250
vt 0.436504 0.293750
vt 0.540954 0.293750
vt 0.540954 0.456250
vt 0.436504 0.456250
vt 0.540954 0.972992
vt 0.436504 0.972992
vt 0.540954 1.000000
vt 0.436504 1.000000
vt 0.436504 0.000000
vt 0.540954 0.000000
vt 0.540954 0.027008
vt 0.436504 0.027008
vt 0.436504 0.277008
vt 0.540954 0.277008
vt 0.540954 0.250000
vt 0.436504 0.250000
vt 0.436504 0.222992
vt 0.540954 0.222992
vt 0.436504 0.527008
vt 0.540954 0.527008
vt 0.436504 0.500000
vt 0.540954 0.500000
vt 0.436504 0.472992
vt 0.540954 0.472992
vt 0.436504 0.777008
vt 0.540954 0.777008
vt 0.436504 0.750000
vt 0.540954 0.750000
vt 0.436504 0.722992
vt 0.540954 0.722992
vn 0.0000 -1.0000 0.0000
vn 0.0000 1.0000 0.0000
vn 0.0000 0.0000 1.0000
vn -1.0000 0.0000 0.0000
vn 1.0000 0.0000 0.0000
vn 0.0000 0.0000 -1.0000
vn 0.1951 0.0000 0.9808
vn 0.5555 0.0000 0.8315
vn 0.8315 0.0000 0.5556
vn 0.9808 0.0000 0.1951
vn 0.1951 0.0000 -0.9808
vn 0.5555 0.0000 -0.8315
vn 0.8315 0.0000 -0.5556
vn 0.9808 0.0000 -0.1951
vn -0.9808 0.0000 -0.1951
vn -0.8315 0.0000 -0.5556
vn -0.5555 0.0000 -0.8315
vn -0.1951 0.0000 -0.9808
vn -0.1951 0.0000 0.9808
vn -0.5555 0.0000 0.8315
vn -0.8315 0.0000 0.5556
vn -0.9808 0.0000 0.1951
usemtl None
s off
f 19/1/1 7/2/1 8/3/1 9/4/1 6/5/1 10/6/1 5/7/1 2/8/1 1/9/1 3/10/1 4/11/1 12/12/1 11/13/1 20/14/1 13/15/1 16/16/1 17/17/1 15/18/1 14/19/1 18/20/1
f 26/21/2 37/22/2 38/23/2 39/24/2 36/25/2 34/26/2 33/27/2 31/28/2 32/29/2 35/30/2 40/31/2 22/32/2 21/33/2 30/34/2 23/35/2 29/36/2 28/37/2 24/38/2 25/39/2 27/40/2
f 38/41/3 20/42/3 11/43/3 39/44/3
f 24/45/4 14/46/4 15/47/4 25/48/4
f 31/49/5 1/50/5 2/51/5 32/52/5
f 21/53/6 9/54/6 8/55/6 30/56/6
f 39/44/7 11/43/7 12/57/7 36/58/7
f 36/58/8 12/57/8 4/59/8 34/60/8
f 34/61/9 4/62/9 3/63/9 33/64/9
f 33/64/10 3/63/10 1/50/10 31/49/10
f 22/65/11 6/66/11 9/54/11 21/53/11
f 10/67/12 6/66/12 22/65/12 40/68/12
f 35/69/13 5/70/13 10/67/13 40/68/13
f 32/52/14 2/51/14 5/70/14 35/69/14
f 28/71/15 18/72/15 14/46/15 24/45/15
f 29/73/16 19/74/16 18/72/16 28/71/16
f 23/75/17 7/76/17 19/74/17 29/73/17
f 30/56/18 8/55/18 7/76/18 23/75/18
f 37/77/19 13/78/19 20/42/19 38/41/19
f 26/79/20 16/80/20 13/78/20 37/77/20
f 27/81/21 17/82/21 16/80/21 26/79/21
f 25/48/22 15/47/22 17/82/22 27/81/22
