# Blender v2.91.0 OBJ File: ''
# www.blender.org
mtllib Shield.mtl
o Sphere
v 0.000000 0.173566 -0.097545
v 0.000000 0.163495 -0.191342
v 0.000000 0.147142 -0.277785
v 0.000000 0.125134 -0.353553
v 0.000000 0.098317 -0.415735
v 0.000000 0.067722 -0.461940
v 0.000000 0.034524 -0.490393
v 0.000000 0.000000 -0.500000
v 0.019030 0.173566 -0.095671
v 0.037329 0.163495 -0.187665
v 0.054193 0.147142 -0.272448
v 0.068975 0.125134 -0.346760
v 0.081106 0.098317 -0.407747
v 0.090120 0.067722 -0.453064
v 0.095671 0.034524 -0.480970
v 0.097545 0.000000 -0.490393
v 0.037329 0.173566 -0.090120
v 0.073223 0.163495 -0.176777
v 0.106304 0.147142 -0.256640
v 0.135299 0.125134 -0.326641
v 0.159095 0.098317 -0.384089
v 0.176777 0.067722 -0.426777
v 0.187665 0.034524 -0.453064
v 0.191342 0.000000 -0.461940
v 0.054193 0.173566 -0.081106
v 0.106304 0.163495 -0.159095
v 0.154329 0.147142 -0.230970
v 0.196424 0.125134 -0.293969
v 0.230970 0.098317 -0.345671
v 0.256640 0.067722 -0.384089
v 0.272448 0.034524 -0.407746
v 0.277785 0.000000 -0.415735
v 0.068975 0.173566 -0.068975
v 0.135299 0.163495 -0.135299
v 0.196424 0.147142 -0.196424
v 0.250000 0.125134 -0.250000
v 0.293969 0.098317 -0.293969
v 0.326641 0.067722 -0.326641
v 0.346760 0.034524 -0.346760
v 0.353554 0.000000 -0.353553
v 0.081106 0.173566 -0.054193
v 0.159095 0.163495 -0.106304
v 0.230970 0.147142 -0.154329
v 0.293969 0.125134 -0.196424
v 0.345671 0.098317 -0.230970
v 0.384089 0.067722 -0.256640
v 0.407747 0.034524 -0.272447
v 0.415735 0.000000 -0.277785
v 0.090120 0.173566 -0.037329
v 0.176777 0.163495 -0.073223
v 0.256640 0.147142 -0.106304
v 0.326641 0.125134 -0.135299
v 0.384089 0.098317 -0.159095
v 0.426777 0.067722 -0.176777
v 0.453064 0.034524 -0.187665
v 0.461940 0.000000 -0.191342
v 0.095671 0.173566 -0.019030
v 0.187665 0.163495 -0.037329
v 0.272448 0.147142 -0.054193
v 0.346760 0.125134 -0.068975
v 0.407747 0.098317 -0.081106
v 0.453064 0.067722 -0.090120
v 0.480970 0.034524 -0.095671
v 0.490393 0.000000 -0.097545
v 0.097545 0.173566 0.000000
v 0.191342 0.163495 0.000000
v 0.277785 0.147142 0.000000
v 0.353553 0.125134 0.000000
v 0.415735 0.098317 0.000000
v 0.461940 0.067722 0.000000
v 0.490393 0.034524 0.000000
v 0.500000 0.000000 0.000000
v 0.095671 0.173566 0.019030
v 0.187665 0.163495 0.037329
v 0.272448 0.147142 0.054193
v 0.346760 0.125134 0.068975
v 0.407747 0.098317 0.081106
v 0.453064 0.067722 0.090120
v 0.480970 0.034524 0.095671
v 0.490393 0.000000 0.097545
v 0.090120 0.173566 0.037329
v 0.176777 0.163495 0.073224
v 0.256640 0.147142 0.106304
v 0.326641 0.125134 0.135299
v 0.384089 0.098317 0.159095
v 0.426777 0.067722 0.176777
v 0.453064 0.034524 0.187665
v 0.461940 0.000000 0.191342
v 0.081106 0.173566 0.054193
v 0.159095 0.163495 0.106304
v 0.230970 0.147142 0.154329
v 0.293969 0.125134 0.196424
v 0.345671 0.098317 0.230970
v 0.384089 0.067722 0.256640
v 0.407747 0.034524 0.272448
v 0.415735 0.000000 0.277785
v 0.068975 0.173566 0.068975
v 0.135299 0.163495 0.135299
v 0.196424 0.147142 0.196424
v 0.250000 0.125134 0.250000
v 0.293969 0.098317 0.293969
v 0.326641 0.067722 0.326641
v 0.346760 0.034524 0.346760
v 0.353553 0.000000 0.353554
v 0.054193 0.173566 0.081106
v 0.106304 0.163495 0.159095
v 0.154329 0.147142 0.230970
v 0.196424 0.125134 0.293969
v 0.230970 0.098317 0.345671
v 0.256640 0.067722 0.384089
v 0.272447 0.034524 0.407747
v 0.277785 0.000000 0.415735
v 0.037329 0.173566 0.090120
v 0.073223 0.163495 0.176777
v 0.106304 0.147142 0.256640
v 0.135299 0.125134 0.326641
v 0.159095 0.098317 0.384089
v 0.176777 0.067722 0.426777
v 0.187665 0.034524 0.453064
v 0.191342 0.000000 0.461940
v 0.019030 0.173566 0.095671
v 0.037329 0.163495 0.187665
v 0.054193 0.147142 0.272448
v 0.068975 0.125134 0.346760
v 0.081106 0.098317 0.407747
v 0.090120 0.067722 0.453064
v 0.095671 0.034524 0.480970
v 0.097545 0.000000 0.490393
v -0.000000 0.173566 0.097545
v 0.000000 0.163495 0.191342
v 0.000000 0.147142 0.277785
v -0.000000 0.125134 0.353554
v -0.000000 0.098317 0.415735
v 0.000000 0.067722 0.461940
v -0.000000 0.034524 0.490393
v -0.000000 0.000000 0.500000
v -0.019030 0.173566 0.095671
v -0.037329 0.163495 0.187665
v -0.054193 0.147142 0.272448
v -0.068975 0.125134 0.346760
v -0.081106 0.098317 0.407747
v -0.090120 0.067722 0.453064
v -0.095671 0.034524 0.480970
v -0.097545 0.000000 0.490393
v -0.037329 0.173566 0.090120
v -0.073223 0.163495 0.176777
v -0.106304 0.147142 0.256640
v -0.135299 0.125134 0.326641
v -0.159095 0.098317 0.384089
v -0.176777 0.067722 0.426777
v -0.187665 0.034524 0.453064
v -0.191342 0.000000 0.461940
v -0.054193 0.173566 0.081106
v -0.106304 0.163495 0.159095
v -0.154329 0.147142 0.230970
v -0.196424 0.125134 0.293969
v -0.230970 0.098317 0.345671
v -0.256640 0.067722 0.384089
v -0.272448 0.034524 0.407747
v -0.277785 0.000000 0.415735
v -0.000000 0.176966 0.000000
v -0.068975 0.173566 0.068975
v -0.135299 0.163495 0.135299
v -0.196424 0.147142 0.196424
v -0.250000 0.125134 0.250000
v -0.293969 0.098317 0.293969
v -0.326641 0.067722 0.326641
v -0.346760 0.034524 0.346760
v -0.353553 0.000000 0.353553
v -0.081106 0.173566 0.054193
v -0.159095 0.163495 0.106304
v -0.230970 0.147142 0.154329
v -0.293969 0.125134 0.196424
v -0.345671 0.098317 0.230970
v -0.384089 0.067722 0.256640
v -0.407746 0.034524 0.272448
v -0.415735 0.000000 0.277785
v -0.090120 0.173566 0.037329
v -0.176777 0.163495 0.073223
v -0.256640 0.147142 0.106304
v -0.326641 0.125134 0.135299
v -0.384089 0.098317 0.159095
v -0.426777 0.067722 0.176777
v -0.453064 0.034524 0.187665
v -0.461940 0.000000 0.191342
v -0.095671 0.173566 0.019030
v -0.187665 0.163495 0.037329
v -0.272448 0.147142 0.054193
v -0.346760 0.125134 0.068975
v -0.407746 0.098317 0.081106
v -0.453064 0.067722 0.090120
v -0.480970 0.034524 0.095671
v -0.490393 0.000000 0.097545
v -0.097545 0.173566 0.000000
v -0.191342 0.163495 0.000000
v -0.277785 0.147142 0.000000
v -0.353553 0.125134 0.000000
v -0.415735 0.098317 0.000000
v -0.461940 0.067722 0.000000
v -0.490392 0.034524 0.000000
v -0.500000 0.000000 0.000000
v -0.095671 0.173566 -0.019030
v -0.187665 0.163495 -0.037329
v -0.272448 0.147142 -0.054193
v -0.346760 0.125134 -0.068975
v -0.407746 0.098317 -0.081106
v -0.453064 0.067722 -0.090120
v -0.480970 0.034524 -0.095671
v -0.490393 0.000000 -0.097545
v -0.090120 0.173566 -0.037329
v -0.176777 0.163495 -0.073223
v -0.256640 0.147142 -0.106304
v -0.326641 0.125134 -0.135299
v -0.384089 0.098317 -0.159095
v -0.426777 0.067722 -0.176777
v -0.453063 0.034524 -0.187665
v -0.461940 0.000000 -0.191342
v -0.081106 0.173566 -0.054193
v -0.159095 0.163495 -0.106304
v -0.230970 0.147142 -0.154329
v -0.293969 0.125134 -0.196424
v -0.345671 0.098317 -0.230970
v -0.384089 0.067722 -0.256640
v -0.407746 0.034524 -0.272447
v -0.415735 0.000000 -0.277785
v -0.068975 0.173566 -0.068975
v -0.135299 0.163495 -0.135299
v -0.196424 0.147142 -0.196424
v -0.250000 0.125134 -0.250000
v -0.293969 0.098317 -0.293969
v -0.326641 0.067722 -0.326641
v -0.346760 0.034524 -0.346760
v -0.353553 0.000000 -0.353553
v -0.054193 0.173566 -0.081106
v -0.106304 0.163495 -0.159095
v -0.154329 0.147142 -0.230970
v -0.196424 0.125134 -0.293969
v -0.230970 0.098317 -0.345671
v -0.256640 0.067722 -0.384089
v -0.272447 0.034524 -0.407746
v -0.277785 0.000000 -0.415735
v -0.037329 0.173566 -0.090120
v -0.073223 0.163495 -0.176776
v -0.106304 0.147142 -0.256640
v -0.135299 0.125134 -0.326641
v -0.159095 0.098317 -0.384089
v -0.176777 0.067722 -0.426776
v -0.187665 0.034524 -0.453063
v -0.191342 0.000000 -0.461939
v -0.019030 0.173566 -0.095671
v -0.037329 0.163495 -0.187665
v -0.054193 0.147142 -0.272447
v -0.068975 0.125134 -0.346760
v -0.081106 0.098317 -0.407746
v -0.090120 0.067722 -0.453063
v -0.095671 0.034524 -0.480969
v -0.097545 0.000000 -0.490392
v 0.190431 -0.008547 0.459743
v 0.097081 -0.008547 0.488060
v -0.000000 -0.008547 0.497622
v -0.097081 -0.008547 0.488060
v -0.190432 -0.008547 0.459742
v -0.276464 -0.008547 0.413757
v -0.351872 -0.008547 0.351872
v -0.413757 -0.008547 0.276464
v -0.459742 -0.008547 0.190432
v -0.488060 -0.008547 0.097081
v -0.497621 -0.008547 0.000000
v -0.488060 -0.008547 -0.097081
v -0.459742 -0.008547 -0.190431
v -0.413757 -0.008547 -0.276464
v -0.351871 -0.008547 -0.351871
v -0.276463 -0.008547 -0.413757
v -0.190431 -0.008547 -0.459742
v -0.097081 -0.008547 -0.488059
v 0.000000 -0.008547 -0.497622
v 0.276464 -0.008547 -0.413757
v 0.190432 -0.008547 -0.459742
v 0.097081 -0.008547 -0.488060
v 0.413757 -0.008547 0.276464
v 0.413757 -0.008547 -0.276464
v 0.497622 -0.008547 0.000000
v 0.488060 -0.008547 0.097081
v 0.488060 -0.008547 -0.097081
v 0.459742 -0.008547 -0.190431
v 0.459742 -0.008547 0.190432
v 0.351872 -0.008547 -0.351871
v 0.351872 -0.008547 0.351872
v 0.276464 -0.008547 0.413757
vt 0.750000 0.500000
vt 0.750000 0.562500
vt 0.718750 0.562500
vt 0.718750 0.500000
vt 0.750000 0.937500
vt 0.734375 1.000000
vt 0.718750 0.937500
vt 0.750000 0.875000
vt 0.718750 0.875000
vt 0.750000 0.812500
vt 0.718750 0.812500
vt 0.750000 0.750000
vt 0.718750 0.750000
vt 0.750000 0.687500
vt 0.718750 0.687500
vt 0.750000 0.625000
vt 0.718750 0.625000
vt 0.687500 0.687500
vt 0.687500 0.625000
vt 0.687500 0.562500
vt 0.687500 0.500000
vt 0.703125 1.000000
vt 0.687500 0.937500
vt 0.687500 0.875000
vt 0.687500 0.812500
vt 0.687500 0.750000
vt 0.656250 0.875000
vt 0.656250 0.812500
vt 0.656250 0.750000
vt 0.656250 0.687500
vt 0.656250 0.625000
vt 0.656250 0.562500
vt 0.656250 0.500000
vt 0.671875 1.000000
vt 0.656250 0.937500
vt 0.625000 0.625000
vt 0.625000 0.562500
vt 0.625000 0.500000
vt 0.640625 1.000000
vt 0.625000 0.937500
vt 0.625000 0.875000
vt 0.625000 0.812500
vt 0.625000 0.750000
vt 0.625000 0.687500
vt 0.593750 0.812500
vt 0.593750 0.750000
vt 0.593750 0.687500
vt 0.593750 0.625000
vt 0.593750 0.562500
vt 0.593750 0.500000
vt 0.609375 1.000000
vt 0.593750 0.937500
vt 0.593750 0.875000
vt 0.562500 0.562500
vt 0.562500 0.500000
vt 0.578125 1.000000
vt 0.562500 0.937500
vt 0.562500 0.875000
vt 0.562500 0.812500
vt 0.562500 0.750000
vt 0.562500 0.687500
vt 0.562500 0.625000
vt 0.531250 0.812500
vt 0.531250 0.750000
vt 0.531250 0.687500
vt 0.531250 0.625000
vt 0.531250 0.562500
vt 0.531250 0.500000
vt 0.546875 1.000000
vt 0.531250 0.937500
vt 0.531250 0.875000
vt 0.500000 0.562500
vt 0.500000 0.500000
vt 0.515625 1.000000
vt 0.500000 0.937500
vt 0.500000 0.875000
vt 0.500000 0.812500
vt 0.500000 0.750000
vt 0.500000 0.687500
vt 0.500000 0.625000
vt 0.468750 0.750000
vt 0.468750 0.687500
vt 0.468750 0.625000
vt 0.468750 0.562500
vt 0.468750 0.500000
vt 0.484374 1.000000
vt 0.468750 0.937500
vt 0.468750 0.875000
vt 0.468750 0.812500
vt 0.453124 1.000000
vt 0.437500 0.937500
vt 0.437500 0.875000
vt 0.437500 0.812500
vt 0.437500 0.750000
vt 0.437500 0.687500
vt 0.437500 0.625000
vt 0.437500 0.562500
vt 0.437500 0.500000
vt 0.406250 0.750000
vt 0.406250 0.687500
vt 0.406250 0.625000
vt 0.406250 0.562500
vt 0.406250 0.500000
vt 0.421874 1.000000
vt 0.406250 0.937500
vt 0.406250 0.875000
vt 0.406250 0.812500
vt 0.375000 0.937500
vt 0.375000 0.875000
vt 0.375000 0.812500
vt 0.375000 0.750000
vt 0.375000 0.687500
vt 0.375000 0.625000
vt 0.375000 0.562500
vt 0.375000 0.500000
vt 0.390625 1.000000
vt 0.343750 0.687500
vt 0.343750 0.625000
vt 0.343750 0.562500
vt 0.343750 0.500000
vt 0.359375 1.000000
vt 0.343750 0.937500
vt 0.343750 0.875000
vt 0.343750 0.812500
vt 0.343750 0.750000
vt 0.312500 0.875000
vt 0.312500 0.812500
vt 0.312500 0.750000
vt 0.312500 0.687500
vt 0.312500 0.625000
vt 0.312500 0.562500
vt 0.312500 0.500000
vt 0.328125 1.000000
vt 0.312500 0.937500
vt 0.281250 0.625000
vt 0.281250 0.562500
vt 0.281250 0.500000
vt 0.296875 1.000000
vt 0.281250 0.937500
vt 0.281250 0.875000
vt 0.281250 0.812500
vt 0.281250 0.750000
vt 0.281250 0.687500
vt 0.250000 0.875000
vt 0.250000 0.812500
vt 0.250000 0.750000
vt 0.250000 0.687500
vt 0.250000 0.625000
vt 0.250000 0.562500
vt 0.250000 0.500000
vt 0.265625 1.000000
vt 0.250000 0.937500
vt 0.218750 0.625000
vt 0.218750 0.562500
vt 0.218750 0.500000
vt 0.234375 1.000000
vt 0.218750 0.937500
vt 0.218750 0.875000
vt 0.218750 0.812500
vt 0.218750 0.750000
vt 0.218750 0.687500
vt 0.187500 0.812500
vt 0.187500 0.750000
vt 0.187500 0.687500
vt 0.187500 0.625000
vt 0.187500 0.562500
vt 0.187500 0.500000
vt 0.203125 1.000000
vt 0.187500 0.937500
vt 0.187500 0.875000
vt 0.156250 0.562500
vt 0.156250 0.500000
vt 0.171875 1.000000
vt 0.156250 0.937500
vt 0.156250 0.875000
vt 0.156250 0.812500
vt 0.156250 0.750000
vt 0.156250 0.687500
vt 0.156250 0.625000
vt 0.125000 0.812500
vt 0.125000 0.750000
vt 0.125000 0.687500
vt 0.125000 0.625000
vt 0.125000 0.562500
vt 0.125000 0.500000
vt 0.140625 1.000000
vt 0.125000 0.937500
vt 0.125000 0.875000
vt 0.093750 0.562500
vt 0.093750 0.500000
vt 0.109375 1.000000
vt 0.093750 0.937500
vt 0.093750 0.875000
vt 0.093750 0.812500
vt 0.093750 0.750000
vt 0.093750 0.687500
vt 0.093750 0.625000
vt 0.062500 0.750000
vt 0.062500 0.687500
vt 0.062500 0.625000
vt 0.062500 0.562500
vt 0.062500 0.500000
vt 0.078125 1.000000
vt 0.062500 0.937500
vt 0.062500 0.875000
vt 0.062500 0.812500
vt 0.031250 0.937500
vt 0.031250 0.875000
vt 0.031250 0.812500
vt 0.031250 0.750000
vt 0.031250 0.687500
vt 0.031250 0.625000
vt 0.031250 0.562500
vt 0.031250 0.500000
vt 0.046875 1.000000
vt 0.000000 0.687500
vt 0.000000 0.625000
vt 0.000000 0.562500
vt 0.000000 0.500000
vt 0.015625 1.000000
vt 0.000000 0.937500
vt 0.000000 0.875000
vt 0.000000 0.812500
vt 0.000000 0.750000
vt 1.000000 0.875000
vt 1.000000 0.937500
vt 0.968750 0.937500
vt 0.968750 0.875000
vt 1.000000 0.812500
vt 0.968750 0.812500
vt 1.000000 0.750000
vt 0.968750 0.750000
vt 1.000000 0.687500
vt 0.968750 0.687500
vt 1.000000 0.625000
vt 0.968750 0.625000
vt 1.000000 0.562500
vt 0.968750 0.562500
vt 1.000000 0.500000
vt 0.968750 0.500000
vt 0.984375 1.000000
vt 0.937500 0.687500
vt 0.937500 0.625000
vt 0.937500 0.562500
vt 0.937500 0.500000
vt 0.953125 1.000000
vt 0.937500 0.937500
vt 0.937500 0.875000
vt 0.937500 0.812500
vt 0.937500 0.750000
vt 0.906250 0.875000
vt 0.906250 0.812500
vt 0.906250 0.750000
vt 0.906250 0.687500
vt 0.906250 0.625000
vt 0.906250 0.562500
vt 0.906250 0.500000
vt 0.921875 1.000000
vt 0.906250 0.937500
vt 0.875000 0.625000
vt 0.875000 0.562500
vt 0.875000 0.500000
vt 0.890625 1.000000
vt 0.875000 0.937500
vt 0.875000 0.875000
vt 0.875000 0.812500
vt 0.875000 0.750000
vt 0.875000 0.687500
vt 0.843750 0.875000
vt 0.843750 0.812500
vt 0.843750 0.750000
vt 0.843750 0.687500
vt 0.843750 0.625000
vt 0.843750 0.562500
vt 0.843750 0.500000
vt 0.859375 1.000000
vt 0.843750 0.937500
vt 0.812500 0.625000
vt 0.812500 0.562500
vt 0.812500 0.500000
vt 0.828125 1.000000
vt 0.812500 0.937500
vt 0.812500 0.875000
vt 0.812500 0.812500
vt 0.812500 0.750000
vt 0.812500 0.687500
vt 0.781250 0.812500
vt 0.781250 0.750000
vt 0.781250 0.687500
vt 0.781250 0.625000
vt 0.781250 0.562500
vt 0.781250 0.500000
vt 0.796875 1.000000
vt 0.781250 0.937500
vt 0.781250 0.875000
vt 0.765625 1.000000
vt 0.625595 0.625000
vt 0.627985 0.649270
vt 0.635064 0.672608
vt 0.646561 0.694116
vt 0.662032 0.712968
vt 0.680884 0.728439
vt 0.702392 0.739936
vt 0.725730 0.747015
vt 0.750000 0.749405
vt 0.774270 0.747015
vt 0.797608 0.739936
vt 0.819116 0.728439
vt 0.837968 0.712968
vt 0.853439 0.694116
vt 0.864936 0.672608
vt 0.872015 0.649270
vt 0.874405 0.625000
vt 0.872015 0.600730
vt 0.864936 0.577392
vt 0.853439 0.555884
vt 0.837968 0.537032
vt 0.819116 0.521561
vt 0.797608 0.510064
vt 0.774270 0.502985
vt 0.750000 0.500595
vt 0.725730 0.502985
vt 0.702392 0.510064
vt 0.680884 0.521561
vt 0.662032 0.537032
vt 0.646561 0.555884
vt 0.635064 0.577392
vt 0.627985 0.600730
vt 0.750000 0.484527
vt 0.718750 0.484527
vt 0.687500 0.484527
vt 0.656250 0.484527
vt 0.625000 0.484527
vt 0.593750 0.484527
vt 0.562500 0.484527
vt 0.531250 0.484527
vt 0.500000 0.484527
vt 0.468750 0.484527
vt 0.437500 0.484527
vt 0.406250 0.484527
vt 0.375000 0.484527
vt 0.343750 0.484527
vt 0.312500 0.484527
vt 0.281250 0.484527
vt 0.250000 0.484527
vt 0.218750 0.484527
vt 0.187500 0.484527
vt 0.156250 0.484527
vt 0.125000 0.484527
vt 0.093750 0.484527
vt 0.062500 0.484527
vt 0.031250 0.484527
vt 0.000000 0.484527
vt 0.968750 0.484527
vt 1.000000 0.484527
vt 0.937500 0.484527
vt 0.906250 0.484527
vt 0.875000 0.484527
vt 0.843750 0.484527
vt 0.812500 0.484527
vt 0.781250 0.484527
vn 0.0945 0.2669 -0.9591
vn 0.0034 0.9994 -0.0348
vn 0.0105 0.9942 -0.1067
vn 0.0183 0.9824 -0.1859
vn 0.0275 0.9599 -0.2788
vn 0.0390 0.9175 -0.3957
vn 0.0543 0.8326 -0.5513
vn 0.0746 0.6489 -0.7572
vn 0.1608 0.8326 -0.5301
vn 0.2209 0.6489 -0.7281
vn 0.2798 0.2669 -0.9222
vn 0.0102 0.9994 -0.0335
vn 0.0311 0.9942 -0.1026
vn 0.0542 0.9824 -0.1787
vn 0.0813 0.9599 -0.2681
vn 0.1154 0.9175 -0.3805
vn 0.0880 0.9824 -0.1647
vn 0.1321 0.9599 -0.2471
vn 0.1874 0.9175 -0.3507
vn 0.2611 0.8326 -0.4885
vn 0.3587 0.6489 -0.6710
vn 0.4543 0.2669 -0.8499
vn 0.0165 0.9994 -0.0309
vn 0.0506 0.9942 -0.0946
vn 0.4827 0.6489 -0.5881
vn 0.6114 0.2669 -0.7450
vn 0.0222 0.9994 -0.0271
vn 0.0680 0.9942 -0.0829
vn 0.1185 0.9824 -0.1444
vn 0.1777 0.9599 -0.2166
vn 0.2522 0.9175 -0.3074
vn 0.3514 0.8326 -0.4282
vn 0.2166 0.9599 -0.1777
vn 0.3074 0.9175 -0.2522
vn 0.4282 0.8326 -0.3514
vn 0.5881 0.6489 -0.4827
vn 0.7450 0.2669 -0.6114
vn 0.0271 0.9994 -0.0222
vn 0.0829 0.9942 -0.0680
vn 0.1444 0.9824 -0.1185
vn 0.8499 0.2669 -0.4543
vn 0.0309 0.9994 -0.0165
vn 0.0946 0.9942 -0.0506
vn 0.1647 0.9824 -0.0880
vn 0.2471 0.9599 -0.1321
vn 0.3507 0.9175 -0.1874
vn 0.4885 0.8326 -0.2611
vn 0.6710 0.6489 -0.3587
vn 0.2681 0.9599 -0.0813
vn 0.3805 0.9175 -0.1154
vn 0.5301 0.8326 -0.1608
vn 0.7281 0.6489 -0.2209
vn 0.9222 0.2669 -0.2798
vn 0.0335 0.9994 -0.0102
vn 0.1026 0.9942 -0.0311
vn 0.1787 0.9824 -0.0542
vn 0.9591 0.2669 -0.0945
vn 0.0348 0.9994 -0.0034
vn 0.1067 0.9942 -0.0105
vn 0.1859 0.9824 -0.0183
vn 0.2788 0.9599 -0.0275
vn 0.3957 0.9175 -0.0390
vn 0.5513 0.8326 -0.0543
vn 0.7572 0.6489 -0.0746
vn 0.3957 0.9175 0.0390
vn 0.5513 0.8326 0.0543
vn 0.7572 0.6489 0.0746
vn 0.9591 0.2669 0.0945
vn 0.0348 0.9994 0.0034
vn 0.1067 0.9942 0.0105
vn 0.1859 0.9824 0.0183
vn 0.2788 0.9599 0.0275
vn 0.0335 0.9994 0.0102
vn 0.1026 0.9942 0.0311
vn 0.1787 0.9824 0.0542
vn 0.2681 0.9599 0.0813
vn 0.3805 0.9175 0.1154
vn 0.5301 0.8326 0.1608
vn 0.7281 0.6489 0.2209
vn 0.9222 0.2669 0.2798
vn 0.3507 0.9175 0.1874
vn 0.4885 0.8326 0.2611
vn 0.6710 0.6489 0.3587
vn 0.8499 0.2669 0.4543
vn 0.0309 0.9994 0.0165
vn 0.0946 0.9942 0.0506
vn 0.1647 0.9824 0.0880
vn 0.2471 0.9599 0.1321
vn 0.0829 0.9942 0.0680
vn 0.1444 0.9824 0.1185
vn 0.2166 0.9599 0.1777
vn 0.3074 0.9175 0.2523
vn 0.4282 0.8326 0.3514
vn 0.5881 0.6489 0.4827
vn 0.7450 0.2669 0.6114
vn 0.0271 0.9994 0.0222
vn 0.3514 0.8326 0.4282
vn 0.4827 0.6489 0.5881
vn 0.6114 0.2669 0.7450
vn 0.0222 0.9994 0.0271
vn 0.0680 0.9942 0.0829
vn 0.1185 0.9824 0.1444
vn 0.1777 0.9599 0.2166
vn 0.2522 0.9175 0.3074
vn 0.0880 0.9824 0.1647
vn 0.1321 0.9599 0.2471
vn 0.1874 0.9175 0.3507
vn 0.2611 0.8326 0.4885
vn 0.3587 0.6489 0.6710
vn 0.4543 0.2669 0.8499
vn 0.0165 0.9994 0.0309
vn 0.0506 0.9942 0.0946
vn 0.2209 0.6489 0.7281
vn 0.2798 0.2669 0.9222
vn 0.0102 0.9994 0.0335
vn 0.0311 0.9942 0.1026
vn 0.0542 0.9824 0.1787
vn 0.0813 0.9599 0.2681
vn 0.1154 0.9175 0.3805
vn 0.1608 0.8326 0.5301
vn 0.0183 0.9824 0.1859
vn 0.0275 0.9599 0.2788
vn 0.0390 0.9175 0.3957
vn 0.0543 0.8326 0.5513
vn 0.0746 0.6489 0.7572
vn 0.0945 0.2669 0.9591
vn 0.0034 0.9994 0.0348
vn 0.0105 0.9942 0.1067
vn -0.0746 0.6489 0.7572
vn -0.0945 0.2669 0.9591
vn -0.0034 0.9994 0.0348
vn -0.0105 0.9942 0.1067
vn -0.0183 0.9824 0.1859
vn -0.0275 0.9599 0.2788
vn -0.0390 0.9175 0.3957
vn -0.0543 0.8326 0.5513
vn -0.0813 0.9599 0.2681
vn -0.1154 0.9175 0.3805
vn -0.1608 0.8326 0.5301
vn -0.2209 0.6489 0.7281
vn -0.2798 0.2669 0.9222
vn -0.0102 0.9994 0.0335
vn -0.0311 0.9942 0.1026
vn -0.0542 0.9824 0.1787
vn -0.4543 0.2669 0.8499
vn -0.0165 0.9994 0.0309
vn -0.0506 0.9942 0.0946
vn -0.0880 0.9824 0.1647
vn -0.1321 0.9599 0.2471
vn -0.1874 0.9175 0.3507
vn -0.2611 0.8326 0.4885
vn -0.3587 0.6489 0.6710
vn -0.1777 0.9599 0.2166
vn -0.2523 0.9175 0.3074
vn -0.3514 0.8326 0.4282
vn -0.4827 0.6489 0.5881
vn -0.6114 0.2669 0.7450
vn -0.0222 0.9994 0.0271
vn -0.0680 0.9942 0.0829
vn -0.1185 0.9824 0.1444
vn -0.7450 0.2669 0.6114
vn -0.0271 0.9994 0.0222
vn -0.0829 0.9942 0.0680
vn -0.1444 0.9824 0.1185
vn -0.2166 0.9599 0.1777
vn -0.3074 0.9175 0.2523
vn -0.4282 0.8326 0.3514
vn -0.5881 0.6489 0.4827
vn -0.3507 0.9175 0.1874
vn -0.4885 0.8326 0.2611
vn -0.6710 0.6489 0.3587
vn -0.8499 0.2669 0.4543
vn -0.0309 0.9994 0.0165
vn -0.0946 0.9942 0.0506
vn -0.1647 0.9824 0.0880
vn -0.2471 0.9599 0.1321
vn -0.1026 0.9942 0.0311
vn -0.1787 0.9824 0.0542
vn -0.2681 0.9599 0.0813
vn -0.3805 0.9175 0.1154
vn -0.5301 0.8326 0.1608
vn -0.7281 0.6489 0.2209
vn -0.9222 0.2669 0.2798
vn -0.0335 0.9994 0.0102
vn -0.5513 0.8326 0.0543
vn -0.7572 0.6489 0.0746
vn -0.9591 0.2669 0.0945
vn -0.0348 0.9994 0.0034
vn -0.1067 0.9942 0.0105
vn -0.1859 0.9824 0.0183
vn -0.2788 0.9599 0.0275
vn -0.3957 0.9175 0.0390
vn -0.1067 0.9942 -0.0105
vn -0.1859 0.9824 -0.0183
vn -0.2788 0.9599 -0.0275
vn -0.3957 0.9175 -0.0390
vn -0.5513 0.8326 -0.0543
vn -0.7572 0.6489 -0.0746
vn -0.9591 0.2669 -0.0945
vn -0.0348 0.9994 -0.0034
vn -0.5301 0.8326 -0.1608
vn -0.7281 0.6489 -0.2209
vn -0.9222 0.2669 -0.2798
vn -0.0335 0.9994 -0.0102
vn -0.1026 0.9942 -0.0311
vn -0.1787 0.9824 -0.0542
vn -0.2681 0.9599 -0.0813
vn -0.3805 0.9175 -0.1154
vn -0.1647 0.9824 -0.0880
vn -0.2471 0.9599 -0.1321
vn -0.3507 0.9175 -0.1874
vn -0.4885 0.8326 -0.2611
vn -0.6710 0.6489 -0.3587
vn -0.8499 0.2669 -0.4543
vn -0.0309 0.9994 -0.0165
vn -0.0946 0.9942 -0.0506
vn -0.5881 0.6489 -0.4827
vn -0.7450 0.2669 -0.6114
vn -0.0271 0.9994 -0.0222
vn -0.0829 0.9942 -0.0680
vn -0.1444 0.9824 -0.1185
vn -0.2166 0.9599 -0.1777
vn -0.3074 0.9175 -0.2523
vn -0.4282 0.8326 -0.3514
vn -0.1185 0.9824 -0.1444
vn -0.1777 0.9599 -0.2166
vn -0.2523 0.9175 -0.3074
vn -0.3514 0.8326 -0.4282
vn -0.4827 0.6489 -0.5881
vn -0.6114 0.2669 -0.7450
vn -0.0222 0.9994 -0.0271
vn -0.0680 0.9942 -0.0829
vn -0.3587 0.6489 -0.6710
vn -0.4543 0.2669 -0.8499
vn -0.0165 0.9994 -0.0309
vn -0.0506 0.9942 -0.0946
vn -0.0880 0.9824 -0.1647
vn -0.1321 0.9599 -0.2471
vn -0.1874 0.9175 -0.3507
vn -0.2611 0.8326 -0.4885
vn -0.0813 0.9599 -0.2681
vn -0.1154 0.9175 -0.3805
vn -0.1608 0.8326 -0.5301
vn -0.2209 0.6489 -0.7281
vn -0.2798 0.2669 -0.9222
vn -0.0102 0.9994 -0.0335
vn -0.0311 0.9942 -0.1026
vn -0.0542 0.9824 -0.1787
vn -0.0945 0.2669 -0.9591
vn -0.0034 0.9994 -0.0348
vn -0.0105 0.9942 -0.1067
vn -0.0183 0.9824 -0.1859
vn -0.0275 0.9599 -0.2788
vn -0.0390 0.9175 -0.3957
vn -0.0543 0.8326 -0.5513
vn -0.0746 0.6489 -0.7572
vn 0.0000 -1.0000 -0.0000
vn 0.0945 -0.2669 -0.9591
vn 0.2798 -0.2669 -0.9222
vn 0.4543 -0.2669 -0.8499
vn 0.6114 -0.2669 -0.7450
vn 0.7450 -0.2669 -0.6114
vn 0.8499 -0.2669 -0.4543
vn 0.9222 -0.2669 -0.2798
vn 0.9591 -0.2669 -0.0945
vn 0.9591 -0.2669 0.0945
vn 0.9222 -0.2669 0.2798
vn 0.8499 -0.2669 0.4543
vn 0.7450 -0.2669 0.6114
vn 0.6114 -0.2669 0.7450
vn 0.4543 -0.2669 0.8499
vn 0.2798 -0.2669 0.9222
vn 0.0945 -0.2669 0.9591
vn -0.0945 -0.2669 0.9591
vn -0.2798 -0.2669 0.9222
vn -0.4543 -0.2669 0.8499
vn -0.6114 -0.2669 0.7450
vn -0.7450 -0.2669 0.6114
vn -0.8499 -0.2669 0.4543
vn -0.9222 -0.2669 0.2798
vn -0.9591 -0.2669 0.0945
vn -0.9591 -0.2669 -0.0945
vn -0.9222 -0.2669 -0.2798
vn -0.8499 -0.2669 -0.4543
vn -0.7450 -0.2669 -0.6114
vn -0.6114 -0.2669 -0.7450
vn -0.4543 -0.2669 -0.8499
vn -0.2798 -0.2669 -0.9222
vn -0.0945 -0.2669 -0.9591
usemtl None
s off
f 8/1/1 7/2/1 15/3/1 16/4/1
f 1/5/2 161/6/2 9/7/2
f 2/8/3 1/5/3 9/7/3 10/9/3
f 3/10/4 2/8/4 10/9/4 11/11/4
f 4/12/5 3/10/5 11/11/5 12/13/5
f 5/14/6 4/12/6 12/13/6 13/15/6
f 6/16/7 5/14/7 13/15/7 14/17/7
f 7/2/8 6/16/8 14/17/8 15/3/8
f 14/17/9 13/15/9 21/18/9 22/19/9
f 15/3/10 14/17/10 22/19/10 23/20/10
f 16/4/11 15/3/11 23/20/11 24/21/11
f 9/7/12 161/22/12 17/23/12
f 10/9/13 9/7/13 17/23/13 18/24/13
f 11/11/14 10/9/14 18/24/14 19/25/14
f 12/13/15 11/11/15 19/25/15 20/26/15
f 13/15/16 12/13/16 20/26/16 21/18/16
f 19/25/17 18/24/17 26/27/17 27/28/17
f 20/26/18 19/25/18 27/28/18 28/29/18
f 21/18/19 20/26/19 28/29/19 29/30/19
f 22/19/20 21/18/20 29/30/20 30/31/20
f 23/20/21 22/19/21 30/31/21 31/32/21
f 24/21/22 23/20/22 31/32/22 32/33/22
f 17/23/23 161/34/23 25/35/23
f 18/24/24 17/23/24 25/35/24 26/27/24
f 31/32/25 30/31/25 38/36/25 39/37/25
f 32/33/26 31/32/26 39/37/26 40/38/26
f 25/35/27 161/39/27 33/40/27
f 26/27/28 25/35/28 33/40/28 34/41/28
f 27/28/29 26/27/29 34/41/29 35/42/29
f 28/29/30 27/28/30 35/42/30 36/43/30
f 29/30/31 28/29/31 36/43/31 37/44/31
f 30/31/32 29/30/32 37/44/32 38/36/32
f 36/43/33 35/42/33 43/45/33 44/46/33
f 37/44/34 36/43/34 44/46/34 45/47/34
f 38/36/35 37/44/35 45/47/35 46/48/35
f 39/37/36 38/36/36 46/48/36 47/49/36
f 40/38/37 39/37/37 47/49/37 48/50/37
f 33/40/38 161/51/38 41/52/38
f 34/41/39 33/40/39 41/52/39 42/53/39
f 35/42/40 34/41/40 42/53/40 43/45/40
f 48/50/41 47/49/41 55/54/41 56/55/41
f 41/52/42 161/56/42 49/57/42
f 42/53/43 41/52/43 49/57/43 50/58/43
f 43/45/44 42/53/44 50/58/44 51/59/44
f 44/46/45 43/45/45 51/59/45 52/60/45
f 45/47/46 44/46/46 52/60/46 53/61/46
f 46/48/47 45/47/47 53/61/47 54/62/47
f 47/49/48 46/48/48 54/62/48 55/54/48
f 52/60/49 51/59/49 59/63/49 60/64/49
f 53/61/50 52/60/50 60/64/50 61/65/50
f 54/62/51 53/61/51 61/65/51 62/66/51
f 55/54/52 54/62/52 62/66/52 63/67/52
f 56/55/53 55/54/53 63/67/53 64/68/53
f 49/57/54 161/69/54 57/70/54
f 50/58/55 49/57/55 57/70/55 58/71/55
f 51/59/56 50/58/56 58/71/56 59/63/56
f 64/68/57 63/67/57 71/72/57 72/73/57
f 57/70/58 161/74/58 65/75/58
f 58/71/59 57/70/59 65/75/59 66/76/59
f 59/63/60 58/71/60 66/76/60 67/77/60
f 60/64/61 59/63/61 67/77/61 68/78/61
f 61/65/62 60/64/62 68/78/62 69/79/62
f 62/66/63 61/65/63 69/79/63 70/80/63
f 63/67/64 62/66/64 70/80/64 71/72/64
f 69/79/65 68/78/65 76/81/65 77/82/65
f 70/80/66 69/79/66 77/82/66 78/83/66
f 71/72/67 70/80/67 78/83/67 79/84/67
f 72/73/68 71/72/68 79/84/68 80/85/68
f 65/75/69 161/86/69 73/87/69
f 66/76/70 65/75/70 73/87/70 74/88/70
f 67/77/71 66/76/71 74/88/71 75/89/71
f 68/78/72 67/77/72 75/89/72 76/81/72
f 73/87/73 161/90/73 81/91/73
f 74/88/74 73/87/74 81/91/74 82/92/74
f 75/89/75 74/88/75 82/92/75 83/93/75
f 76/81/76 75/89/76 83/93/76 84/94/76
f 77/82/77 76/81/77 84/94/77 85/95/77
f 78/83/78 77/82/78 85/95/78 86/96/78
f 79/84/79 78/83/79 86/96/79 87/97/79
f 80/85/80 79/84/80 87/97/80 88/98/80
f 85/95/81 84/94/81 92/99/81 93/100/81
f 86/96/82 85/95/82 93/100/82 94/101/82
f 87/97/83 86/96/83 94/101/83 95/102/83
f 88/98/84 87/97/84 95/102/84 96/103/84
f 81/91/85 161/104/85 89/105/85
f 82/92/86 81/91/86 89/105/86 90/106/86
f 83/93/87 82/92/87 90/106/87 91/107/87
f 84/94/88 83/93/88 91/107/88 92/99/88
f 90/106/89 89/105/89 97/108/89 98/109/89
f 91/107/90 90/106/90 98/109/90 99/110/90
f 92/99/91 91/107/91 99/110/91 100/111/91
f 93/100/92 92/99/92 100/111/92 101/112/92
f 94/101/93 93/100/93 101/112/93 102/113/93
f 95/102/94 94/101/94 102/113/94 103/114/94
f 96/103/95 95/102/95 103/114/95 104/115/95
f 89/105/96 161/116/96 97/108/96
f 102/113/97 101/112/97 109/117/97 110/118/97
f 103/114/98 102/113/98 110/118/98 111/119/98
f 104/115/99 103/114/99 111/119/99 112/120/99
f 97/108/100 161/121/100 105/122/100
f 98/109/101 97/108/101 105/122/101 106/123/101
f 99/110/102 98/109/102 106/123/102 107/124/102
f 100/111/103 99/110/103 107/124/103 108/125/103
f 101/112/104 100/111/104 108/125/104 109/117/104
f 107/124/105 106/123/105 114/126/105 115/127/105
f 108/125/106 107/124/106 115/127/106 116/128/106
f 109/117/107 108/125/107 116/128/107 117/129/107
f 110/118/108 109/117/108 117/129/108 118/130/108
f 111/119/109 110/118/109 118/130/109 119/131/109
f 112/120/110 111/119/110 119/131/110 120/132/110
f 105/122/111 161/133/111 113/134/111
f 106/123/112 105/122/112 113/134/112 114/126/112
f 119/131/113 118/130/113 126/135/113 127/136/113
f 120/132/114 119/131/114 127/136/114 128/137/114
f 113/134/115 161/138/115 121/139/115
f 114/126/116 113/134/116 121/139/116 122/140/116
f 115/127/117 114/126/117 122/140/117 123/141/117
f 116/128/118 115/127/118 123/141/118 124/142/118
f 117/129/119 116/128/119 124/142/119 125/143/119
f 118/130/120 117/129/120 125/143/120 126/135/120
f 123/141/121 122/140/121 130/144/121 131/145/121
f 124/142/122 123/141/122 131/145/122 132/146/122
f 125/143/123 124/142/123 132/146/123 133/147/123
f 126/135/124 125/143/124 133/147/124 134/148/124
f 127/136/125 126/135/125 134/148/125 135/149/125
f 128/137/126 127/136/126 135/149/126 136/150/126
f 121/139/127 161/151/127 129/152/127
f 122/140/128 121/139/128 129/152/128 130/144/128
f 135/149/129 134/148/129 142/153/129 143/154/129
f 136/150/130 135/149/130 143/154/130 144/155/130
f 129/152/131 161/156/131 137/157/131
f 130/144/132 129/152/132 137/157/132 138/158/132
f 131/145/133 130/144/133 138/158/133 139/159/133
f 132/146/134 131/145/134 139/159/134 140/160/134
f 133/147/135 132/146/135 140/160/135 141/161/135
f 134/148/136 133/147/136 141/161/136 142/153/136
f 140/160/137 139/159/137 147/162/137 148/163/137
f 141/161/138 140/160/138 148/163/138 149/164/138
f 142/153/139 141/161/139 149/164/139 150/165/139
f 143/154/140 142/153/140 150/165/140 151/166/140
f 144/155/141 143/154/141 151/166/141 152/167/141
f 137/157/142 161/168/142 145/169/142
f 138/158/143 137/157/143 145/169/143 146/170/143
f 139/159/144 138/158/144 146/170/144 147/162/144
f 152/167/145 151/166/145 159/171/145 160/172/145
f 145/169/146 161/173/146 153/174/146
f 146/170/147 145/169/147 153/174/147 154/175/147
f 147/162/148 146/170/148 154/175/148 155/176/148
f 148/163/149 147/162/149 155/176/149 156/177/149
f 149/164/150 148/163/150 156/177/150 157/178/150
f 150/165/151 149/164/151 157/178/151 158/179/151
f 151/166/152 150/165/152 158/179/152 159/171/152
f 156/177/153 155/176/153 164/180/153 165/181/153
f 157/178/154 156/177/154 165/181/154 166/182/154
f 158/179/155 157/178/155 166/182/155 167/183/155
f 159/171/156 158/179/156 167/183/156 168/184/156
f 160/172/157 159/171/157 168/184/157 169/185/157
f 153/174/158 161/186/158 162/187/158
f 154/175/159 153/174/159 162/187/159 163/188/159
f 155/176/160 154/175/160 163/188/160 164/180/160
f 169/185/161 168/184/161 176/189/161 177/190/161
f 162/187/162 161/191/162 170/192/162
f 163/188/163 162/187/163 170/192/163 171/193/163
f 164/180/164 163/188/164 171/193/164 172/194/164
f 165/181/165 164/180/165 172/194/165 173/195/165
f 166/182/166 165/181/166 173/195/166 174/196/166
f 167/183/167 166/182/167 174/196/167 175/197/167
f 168/184/168 167/183/168 175/197/168 176/189/168
f 174/196/169 173/195/169 181/198/169 182/199/169
f 175/197/170 174/196/170 182/199/170 183/200/170
f 176/189/171 175/197/171 183/200/171 184/201/171
f 177/190/172 176/189/172 184/201/172 185/202/172
f 170/192/173 161/203/173 178/204/173
f 171/193/174 170/192/174 178/204/174 179/205/174
f 172/194/175 171/193/175 179/205/175 180/206/175
f 173/195/176 172/194/176 180/206/176 181/198/176
f 179/205/177 178/204/177 186/207/177 187/208/177
f 180/206/178 179/205/178 187/208/178 188/209/178
f 181/198/179 180/206/179 188/209/179 189/210/179
f 182/199/180 181/198/180 189/210/180 190/211/180
f 183/200/181 182/199/181 190/211/181 191/212/181
f 184/201/182 183/200/182 191/212/182 192/213/182
f 185/202/183 184/201/183 192/213/183 193/214/183
f 178/204/184 161/215/184 186/207/184
f 191/212/185 190/211/185 198/216/185 199/217/185
f 192/213/186 191/212/186 199/217/186 200/218/186
f 193/214/187 192/213/187 200/218/187 201/219/187
f 186/207/188 161/220/188 194/221/188
f 187/208/189 186/207/189 194/221/189 195/222/189
f 188/209/190 187/208/190 195/222/190 196/223/190
f 189/210/191 188/209/191 196/223/191 197/224/191
f 190/211/192 189/210/192 197/224/192 198/216/192
f 195/225/193 194/226/193 202/227/193 203/228/193
f 196/229/194 195/225/194 203/228/194 204/230/194
f 197/231/195 196/229/195 204/230/195 205/232/195
f 198/233/196 197/231/196 205/232/196 206/234/196
f 199/235/197 198/233/197 206/234/197 207/236/197
f 200/237/198 199/235/198 207/236/198 208/238/198
f 201/239/199 200/237/199 208/238/199 209/240/199
f 194/226/200 161/241/200 202/227/200
f 207/236/201 206/234/201 214/242/201 215/243/201
f 208/238/202 207/236/202 215/243/202 216/244/202
f 209/240/203 208/238/203 216/244/203 217/245/203
f 202/227/204 161/246/204 210/247/204
f 203/228/205 202/227/205 210/247/205 211/248/205
f 204/230/206 203/228/206 211/248/206 212/249/206
f 205/232/207 204/230/207 212/249/207 213/250/207
f 206/234/208 205/232/208 213/250/208 214/242/208
f 212/249/209 211/248/209 219/251/209 220/252/209
f 213/250/210 212/249/210 220/252/210 221/253/210
f 214/242/211 213/250/211 221/253/211 222/254/211
f 215/243/212 214/242/212 222/254/212 223/255/212
f 216/244/213 215/243/213 223/255/213 224/256/213
f 217/245/214 216/244/214 224/256/214 225/257/214
f 210/247/215 161/258/215 218/259/215
f 211/248/216 210/247/216 218/259/216 219/251/216
f 224/256/217 223/255/217 231/260/217 232/261/217
f 225/257/218 224/256/218 232/261/218 233/262/218
f 218/259/219 161/263/219 226/264/219
f 219/251/220 218/259/220 226/264/220 227/265/220
f 220/252/221 219/251/221 227/265/221 228/266/221
f 221/253/222 220/252/222 228/266/222 229/267/222
f 222/254/223 221/253/223 229/267/223 230/268/223
f 223/255/224 222/254/224 230/268/224 231/260/224
f 228/266/225 227/265/225 235/269/225 236/270/225
f 229/267/226 228/266/226 236/270/226 237/271/226
f 230/268/227 229/267/227 237/271/227 238/272/227
f 231/260/228 230/268/228 238/272/228 239/273/228
f 232/261/229 231/260/229 239/273/229 240/274/229
f 233/262/230 232/261/230 240/274/230 241/275/230
f 226/264/231 161/276/231 234/277/231
f 227/265/232 226/264/232 234/277/232 235/269/232
f 240/274/233 239/273/233 247/278/233 248/279/233
f 241/275/234 240/274/234 248/279/234 249/280/234
f 234/277/235 161/281/235 242/282/235
f 235/269/236 234/277/236 242/282/236 243/283/236
f 236/270/237 235/269/237 243/283/237 244/284/237
f 237/271/238 236/270/238 244/284/238 245/285/238
f 238/272/239 237/271/239 245/285/239 246/286/239
f 239/273/240 238/272/240 246/286/240 247/278/240
f 245/285/241 244/284/241 252/287/241 253/288/241
f 246/286/242 245/285/242 253/288/242 254/289/242
f 247/278/243 246/286/243 254/289/243 255/290/243
f 248/279/244 247/278/244 255/290/244 256/291/244
f 249/280/245 248/279/245 256/291/245 257/292/245
f 242/282/246 161/293/246 250/294/246
f 243/283/247 242/282/247 250/294/247 251/295/247
f 244/284/248 243/283/248 251/295/248 252/287/248
f 257/292/249 256/291/249 7/2/249 8/1/249
f 250/294/250 161/296/250 1/5/250
f 251/295/251 250/294/251 1/5/251 2/8/251
f 252/287/252 251/295/252 2/8/252 3/10/252
f 253/288/253 252/287/253 3/10/253 4/12/253
f 254/289/254 253/288/254 4/12/254 5/14/254
f 255/290/255 254/289/255 5/14/255 6/16/255
f 256/291/256 255/290/256 6/16/256 7/2/256
f 282/297/257 283/298/257 286/299/257 280/300/257 288/301/257 289/302/257 258/303/257 259/304/257 260/305/257 261/306/257 262/307/257 263/308/257 264/309/257 265/310/257 266/311/257 267/312/257 268/313/257 269/314/257 270/315/257 271/316/257 272/317/257 273/318/257 274/319/257 275/320/257 276/321/257 279/322/257 278/323/257 277/324/257 287/325/257 281/326/257 285/327/257 284/328/257
f 276/329/258 8/1/258 16/4/258 279/330/258
f 279/330/259 16/4/259 24/21/259 278/331/259
f 278/331/260 24/21/260 32/33/260 277/332/260
f 277/332/261 32/33/261 40/38/261 287/333/261
f 287/333/262 40/38/262 48/50/262 281/334/262
f 281/334/263 48/50/263 56/55/263 285/335/263
f 285/335/264 56/55/264 64/68/264 284/336/264
f 284/336/265 64/68/265 72/73/265 282/337/265
f 282/337/266 72/73/266 80/85/266 283/338/266
f 283/338/267 80/85/267 88/98/267 286/339/267
f 286/339/268 88/98/268 96/103/268 280/340/268
f 280/340/269 96/103/269 104/115/269 288/341/269
f 288/341/270 104/115/270 112/120/270 289/342/270
f 289/342/271 112/120/271 120/132/271 258/343/271
f 258/343/272 120/132/272 128/137/272 259/344/272
f 259/344/273 128/137/273 136/150/273 260/345/273
f 260/345/274 136/150/274 144/155/274 261/346/274
f 261/346/275 144/155/275 152/167/275 262/347/275
f 262/347/276 152/167/276 160/172/276 263/348/276
f 263/348/277 160/172/277 169/185/277 264/349/277
f 169/185/278 177/190/278 265/350/278 264/349/278
f 177/190/279 185/202/279 266/351/279 265/350/279
f 185/202/280 193/214/280 267/352/280 266/351/280
f 193/214/281 201/219/281 268/353/281 267/352/281
f 201/239/282 209/240/282 269/354/282 268/355/282
f 269/354/283 209/240/283 217/245/283 270/356/283
f 270/356/284 217/245/284 225/257/284 271/357/284
f 271/357/285 225/257/285 233/262/285 272/358/285
f 233/262/286 241/275/286 273/359/286 272/358/286
f 241/275/287 249/280/287 274/360/287 273/359/287
f 249/280/288 257/292/288 275/361/288 274/360/288
f 257/292/289 8/1/289 276/329/289 275/361/289
