{
  "LevelName": "Not a chicken",
  "LevelAuthor": "Epaphus",
  "RotationSpeed": 0,
  "PositionOffset":{ "x":0,"y":0,"z":0 },
  "LevelXOffset":0,
  "LevelYOffset":8,
  "BlockWidth":2,
  "BlockHeight":1,
  "MovementVector":{ "x":0,"y":0,"z":0 },
  "MovementPeriod":0,
  "Rows": [
    "X                                 X",
    "X   O             GGGGGG   L      X",
    "X                 GGGGGG          X",
    "X                 GGGGGG          X",
    "X                 GGGDGG          X",
    "X                 GGGGGGRR        X",
    "X          GGGGGGGGGGGGGRR        X",
    "X          GGGGGGGGGGGGG          X",
    "X         GGGXXXXXXXGGGG          X",
    "X        GGGGXXXXXXXGG            X",
    "X       GGGGGXX  XXXGG            X",
    "X        GGGGX    XXGG            X",
    "X         GGGXX  XXXGG            X",
    "X          GGGG  GGGGG            X",
    "X          GGGG  GGGGG            X",
    "X          GGGG  GGGGG            X",
    "X          GGGG  GGGGG            X",
    "X                                 X",                                                                                                 
    "XX                               XX",
    "XXX                             XXX",                                                                                                 
    "XXXX                           XXXX",
    "XXXXX                         XXXXX",                                                                                                 
    "                                   ",
    "                                   ",                                                                                                 
    "                                   ",
    "                                   ",
    "                                   "
  ]
}