{
  "LevelName": "THE GOLDEN LLAMA",
  "LevelAuthor": "INF Whale",
  "RotationSpeed": 0,
  "PositionOffset":{ "x":0,"y":0,"z":0 },
  "LevelXOffset":0,
  "LevelYOffset":15,
  "BlockWidth":1,
  "BlockHeight":1,
  "MovementVector":{ "x":0,"y":0,"z":0 },
  "MovementPeriod":0,
  "Rows": [
    "TTTTTTTTTTTTWTTTTTTTTTTTTTTTTTTTTTTTW",
    "TTTTTWTTTTTTTTTTTTTTTTTTTTTTWTTTTTTTT",
    "TTTTWWWTTTTTTTTTTTTIITTTTTIITTTTTTTTT",
    "TTTTTWTTTTTTTWTTTTTTTIRIRITTTTTTTTTTW",
    "TTTTTTTTTTTTTTTTTTTTTTIIITTTTTTTTTTTT",
    "TWTTTTTTTTTTTTRRTTTTTTTTTTTTTTTTTTTTT",
    "TTTTTTTTTTTTTRRRRTTTTTTTTTTTTTTTTTTTT",
    "TTTTRRTTTTTTRRRRRRTTTTWTTTTTTTTTTTTTR",
    " T R R T T R R R R T T T TGT T T T R ",
    "T R R R T R R R R R T T TTGGGGR R R R",
    "TR R R R R R R R R R T R TGWGGGR R W ",
    "R R R R R RGGGGGGRRRRRRRRRGGGGR R R W",
    " R R R R GGGGGGGGGRRRRRRGGGR R R R R ",
    "R R R RGGGGGGGGGGGGGGGGGG R R R R R R",
    " R R RGGGGGGGGGGGGGGGGGG R R R R R R ",
    "R R RGRGGGGRGGGGGGGGG R R R R R R R R",
    " R R GRGGGGGRRRRGGGG R R R R R R R R ",
    "W W W WGGGWGG W W W GGWGW W W W W W W",
    " W W W GGWGG W W W W GGWGG W W W W W ",
    "W W W GGW GGW W W W W GGWGG W W W W W",
    " W W WGG WGG W W W W W WGGWGGG W W W ",
    "W W W WGG WGG W W W W W WGW W W W W W",
    " W W W W W W W W W W W W W W W W W W "
  ]
}