%YAML 1.1
%TAG !u! tag:unity3d.com,2011:
--- !u!114 &11400000
MonoBehaviour:
  m_ObjectHideFlags: 0
  m_CorrespondingSourceObject: {fileID: 0}
  m_PrefabInstance: {fileID: 0}
  m_PrefabAsset: {fileID: 0}
  m_GameObject: {fileID: 0}
  m_Enabled: 1
  m_EditorHideFlags: 0
  m_Script: {fileID: 11500000, guid: 659159d4a3762234399fda39de3aa54b, type: 3}
  m_Name: MultiBall
  m_EditorClassIdentifier: 
  powerupKey: 6
  powerupPrefab: {fileID: 2768726320786119854, guid: 386f12dfcec6daa48b0107fcf454e53b,
    type: 3}
