%YAML 1.1
%TAG !u! tag:unity3d.com,2011:
--- !u!114 &11400000
MonoBehaviour:
  m_ObjectHideFlags: 0
  m_CorrespondingSourceObject: {fileID: 0}
  m_PrefabInstance: {fileID: 0}
  m_PrefabAsset: {fileID: 0}
  m_GameObject: {fileID: 0}
  m_Enabled: 1
  m_EditorHideFlags: 0
  m_Script: {fileID: 11500000, guid: 6c6c3d732fafbf446a379d7f1785f853, type: 3}
  m_Name: FreeDuckyBlock
  m_EditorClassIdentifier: 
  Key: D
  MustDestroyToComplete: 1
  LevelTreasure: 1
  DifficultyRating: 3
  Block: {fileID: 7662083924654791159, guid: 5c11df3bbc877384a9174ad8e0ab6f55, type: 3}
