{
  "LevelName": "OLD REDEYEWHALE",
  "LevelAuthor": "INF Whale",
  "RotationSpeed": 0,
  "PositionOffset":{ "x":0,"y":0,"z":0 },
  "LevelXOffset":0,
  "LevelYOffset":8,
  "BlockWidth":2,
  "BlockHeight":1,
  "MovementVector":{ "x":0,"y":0,"z":0 },
  "MovementPeriod":0,
  "Rows": [
    "                                     ",
    " IIIIIIIIIIIIWWWWWWWWWWWWWWWWWWWWWWW ",
    " I I II I   IWIWWWIWIWIWIIIWIWWWIIIW ",
    " I I  I I IIIWIWWWIWIWIWI IWIWWWIWWW ",
    " I I I  I  IIWIWIWIWIIIWIIIWIWWWIIWW ",
    " I I II I IIIWIWIWIWIWIWIWIWIWWWIWWW ",
    " I I II I IIIWIIIIIWIWIWIWIWIIIWIIIW ",
    " IIIIIIIIIIIIWWWWWWWWWWWWWWWWWWWWWWW ",
    "                                     ",
    "          GGGGGGGG                   ",
    "         GTTTTWWWWGG                 ",
    "        GTTWWWWWWWWWG                ",
    "       GTTWWWWWWWWWWWG               ",
    "      GTWWWWWWWWWWWWWWG              ",
    "     GTWWWWWWWWWWWWWWWWG             ",
    "    GTWWRRWWWWWRRWWWWWWG             ",
    "   GWWWWWRWWWWWWRWWWWWWG             ",
    "  GWWWWWWWWWWWWWWWWWWWWG             ",
    "  GWWWWWWWWWWWWWWWWWWWWWGG           ",
    "   GWWWWWWWWWWWWWWWWWWWG TGGGG       ",
    "    GTGGWWWWWWGGWWWWWWWWWWWWTTG      ",
    "   GGGTTGGGGGGWWWWWGWWWWWWWWWWTG     ",
    "  GWWWGTTTTTTTTTTTGTWWWWWWWWWWTG     ",
    " GWWWWWGGGGGGGGGGGTWWWWWWWWWWWTG     ",
    " GWWWWWWWGTTTTTTTTWWWWWTGWWWWWG      ",
    " GWWWWWWGTTTTTTWWWWWWWWTGWWWG        ",
    "  GWWWWGTTWWWWWWWWWWWWG  TGGGWG      ",
    "   GWWWGTWWWWWWWWWWWWWGG     GWG     ",
    "    GGGGTWWWWWWWWWWWWWGWG   GWWG     ",
    "       GTWWWWWWWWWWWWWGWWGGGWWWG     ",
    "       GTWWWWWWWWWWWWWGWWWWWWWG      ",
    "        GTWWWWWWWWWWWGWWWWWWGG       ",
    "        GTWWWWWWWWWWWGWWWWWG         ",
    "         GTWWWWWWWWWWWWWWWG          ",
    "          GTWWWWWWWWWWWWWWG          ",
    "           GTTWWWWWWWWWWTG           ",
    "            GGTTTTTTTTTTG            ",
    "              GGGGGGGGGG             ",
    "                                     "
  ]
}