{
  "LevelName": "Scorbs second level",
  "LevelAuthor": "Ascorbius",
  "RotationSpeed": 10,
  "PositionOffset":{ "x":0,"y":11,"z":0 },
  "LevelXOffset":0,
  "LevelYOffset":0,
  "BlockWidth":2,
  "BlockHeight":1,
  "MovementVector":{ "x":0,"y":0,"z":0 },
  "MovementPeriod":0,
  "Rows": [
    "    WRW  ",
    "   R   R   ",
	"   W D W  ",
	"   R D R  ",
    "   W   W ",
    "    RWR    "
  ]
}