%YAML 1.1
%TAG !u! tag:unity3d.com,2011:
--- !u!1001 &1801384524211579855
PrefabInstance:
  m_ObjectHideFlags: 0
  serializedVersion: 2
  m_Modification:
    m_TransformParent: {fileID: 0}
    m_Modifications:
    - target: {fileID: 813654528350647690, guid: 335b0c1f6691518468ce7b1bc9a86b32,
        type: 3}
      propertyPath: m_Name
      value: FakeHeroBall
      objectReference: {fileID: 0}
    - target: {fileID: 813654528350647734, guid: 335b0c1f6691518468ce7b1bc9a86b32,
        type: 3}
      propertyPath: m_RootOrder
      value: 0
      objectReference: {fileID: 0}
    - target: {fileID: 813654528350647734, guid: 335b0c1f6691518468ce7b1bc9a86b32,
        type: 3}
      propertyPath: m_LocalPosition.x
      value: 0
      objectReference: {fileID: 0}
    - target: {fileID: 813654528350647734, guid: 335b0c1f6691518468ce7b1bc9a86b32,
        type: 3}
      propertyPath: m_LocalPosition.y
      value: 0.94
      objectReference: {fileID: 0}
    - target: {fileID: 813654528350647734, guid: 335b0c1f6691518468ce7b1bc9a86b32,
        type: 3}
      propertyPath: m_LocalPosition.z
      value: 0
      objectReference: {fileID: 0}
    - target: {fileID: 813654528350647734, guid: 335b0c1f6691518468ce7b1bc9a86b32,
        type: 3}
      propertyPath: m_LocalRotation.w
      value: 1
      objectReference: {fileID: 0}
    - target: {fileID: 813654528350647734, guid: 335b0c1f6691518468ce7b1bc9a86b32,
        type: 3}
      propertyPath: m_LocalRotation.x
      value: 0
      objectReference: {fileID: 0}
    - target: {fileID: 813654528350647734, guid: 335b0c1f6691518468ce7b1bc9a86b32,
        type: 3}
      propertyPath: m_LocalRotation.y
      value: 0
      objectReference: {fileID: 0}
    - target: {fileID: 813654528350647734, guid: 335b0c1f6691518468ce7b1bc9a86b32,
        type: 3}
      propertyPath: m_LocalRotation.z
      value: 0
      objectReference: {fileID: 0}
    - target: {fileID: 813654528350647734, guid: 335b0c1f6691518468ce7b1bc9a86b32,
        type: 3}
      propertyPath: m_LocalEulerAnglesHint.x
      value: 0
      objectReference: {fileID: 0}
    - target: {fileID: 813654528350647734, guid: 335b0c1f6691518468ce7b1bc9a86b32,
        type: 3}
      propertyPath: m_LocalEulerAnglesHint.y
      value: 0
      objectReference: {fileID: 0}
    - target: {fileID: 813654528350647734, guid: 335b0c1f6691518468ce7b1bc9a86b32,
        type: 3}
      propertyPath: m_LocalEulerAnglesHint.z
      value: 0
      objectReference: {fileID: 0}
    m_RemovedComponents:
    - {fileID: 813654528350647689, guid: 335b0c1f6691518468ce7b1bc9a86b32, type: 3}
    - {fileID: 813654528350647733, guid: 335b0c1f6691518468ce7b1bc9a86b32, type: 3}
  m_SourcePrefab: {fileID: 100100000, guid: 335b0c1f6691518468ce7b1bc9a86b32, type: 3}
